distFromGm5-1	distFromPe2-1	lat	long	islandGroup	richness	island	localityCode	jacDist_fromUlebsechel	jacDist_fromNgereamIsland	jacDist_fromOngael	jacDist_fromPeleliu	jacDist_fromEastAirai	jacDist_fromMecherchar	jacDist_fromUlong	jacDist_fromNgerukeuid	jacDist_fromCarp	jacDist_fromOmekang	jacDist_fromEuidelchol	jacDist_summed	jacDist_median
0.36842364	0.41053968	7.32942	134.54417	Airai	10	NgereamIsland	BA5-2	0.642857143	0.166666667	0.944444444	1	0.933333333	1	1	1	1	1	1	8.687301587	1
0.22442771	0.2766459	7.26534	134.41332	Ngeruktabel	10	Ngeruktabel	Gk2-2	0.733333333	0.9	0.272727273	0.866666667	0.933333333	0.944444444	0.9375	0.642857143	0.928571429	0.923076923	0.933333333	8.071399434	0.911538462
0.33417547	0.38014295	7.32207	134.5078	Koror	10	Ngermeuangel	Ko2-2	0.1	0.533333333	0.8125	0.9375	0.933333333	1	0.9375	0.8125	0.928571429	1	1	7.995238095	0.930952381
0.19668251	0.25482551	7.25942	134.3823	Ngeruktabel	9	Ongael	Gk1-2	0.8	0.95	0	0.933333333	1	0.941176471	1	0.714285714	1	0.916666667	0.928571429	8.242857143	0.930952381
0.05506849	0.13881893	7.17826667	134.2599	Southern	9	Ngerukeuid	RJR9_19	0.8	0.95	0.714285714	0.666666667	0.928571429	0.875	0.769230769	0	0.6	0.555555556	0.846153846	6.83046398	0.741758242
0.36707407	0.41271426	7.34274	134.53347	Airai	8	NgereamIsland	BA4-1	0.692307692	0.333333333	0.9375	0.928571429	0.833333333	1	0.928571429	0.9375	0.916666667	1	1	8.507783883	0.928571429
0.36273244	0.40605914	7.33065	134.53655	Airai	8	NgereamIsland	BA8-4	0.785714286	0.333333333	0.9375	1	0.833333333	1	1	1	1	1	1	8.889880952	1
0.27853438	0.33276904	7.31106	134.44587	Ngeruktabel	8	Ngeruktabel	Gk6-2	0.769230769	0.944444444	0.666666667	0.923076923	1	0.933333333	0.923076923	0.769230769	0.909090909	0.9	0.916666667	8.721484071	0.912878788
0.27829483	0.33178039	7.30852	134.44772	Ngeruktabel	8	Ngeruktabel	Gk7-8	0.857142857	1	0.769230769	0.833333333	1	0.857142857	0.923076923	0.769230769	0.909090909	0.9	0.818181818	8.779287379	0.878571429
0.14391377	0.17291248	7.16266	134.37487	Southern	8	Mecherchar	Mc2-1	1	1	1	0.833333333	1	0.222222222	0.833333333	0.857142857	0.8	0.777777778	0.375	8.476587302	0.845238095
0.36708865	0.41509702	7.35224	134.52646	Airai	7	Ngeream	BA6-3	0.769230769	0.416666667	0.933333333	1	0.916666667	1	1	1	1	1	1	9.035897436	1
0.21072736	0.26997522	7.27319	134.38876	Ngeruktabel	7	Gk4-2	Gk4-2	0.769230769	0.944444444	0.222222222	0.923076923	1	0.933333333	1	0.769230769	1	0.9	0.916666667	8.444871795	0.919871795
0.18672114	0.24553303	7.25318	134.37452	Ngeruktabel	7	Gk4-3	Gk4-3	0.857142857	1	0.4	0.923076923	1	0.933333333	1	0.666666667	1	0.9	0.916666667	8.663553114	0.919871795
0.24601592	0.29742875	7.27874	134.43025	Ngeruktabel	7	Ngeruktabel	Gk4-4	0.769230769	0.882352941	0.545454545	0.923076923	0.916666667	1	0.923076923	0.769230769	0.909090909	1	1	8.638180447	0.912878788
0.24937116	0.30018847	7.27943	134.43394	Ngeruktabel	7	Ngeruktabel	Gk4-5	0.666666667	0.882352941	0.545454545	0.923076923	0.916666667	1	0.923076923	0.545454545	0.909090909	0.9	1	8.211840121	0.904545455
0.25041261	0.29930762	7.27458	134.43879	Ngeruktabel	7	Ngeruktabel	Gk7-6	0.769230769	0.944444444	0.666666667	1	1	1	1	0.769230769	1	1	1	9.14957265	1
0.15014038	0.19453745	7.19568	134.36952	Southern	7	Euidelchol	Ik3-1	1	1	0.928571429	0.7	1	0.333333333	0.818181818	0.846153846	0.777777778	0.75	0	7.820684871	0.832167832
0.31300233	0.36043877	7.31306	134.48821	Koror	7	Ulebsechel	Ub7-4	0.222222222	0.538461538	0.857142857	0.923076923	0.916666667	1	0.923076923	0.857142857	0.909090909	1	1	8.146880897	0.912878788
0.36719419	0.41401348	7.34755	134.53012	Airai	6	Ngeream	BA6-4	0.846153846	0.5	0.928571429	1	0.909090909	1	1	1	1	1	1	9.183816184	1
0.36950922	0.41282396	7.33496	134.54182	Airai	6	NgereamIsland	BA8-3	0.928571429	0.5	1	1	0.8	1	1	1	1	1	1	9.228571429	1
0.36497439	0.40930763	7.33612	134.53555	Airai	6	NgereamIsland	BA8-5	0.75	0.5	0.928571429	1	0.909090909	1	1	1	1	1	1	9.087662338	1
0.05662199	0.05758559	7.0919	134.2775	Southern	6	Carp	Cp1-1	0.923076923	0.9375	1	0.285714286	0.9	0.833333333	0.5	0.6	0	0.5	0.777777778	6.424068987	0.688888889
0.24452828	0.28815281	7.25541	134.44434	Ngeruktabel	6	Ngeruktabel	Gk1-1	0.75	0.941176471	0.75	0.916666667	0.909090909	1	0.916666667	0.75	0.9	1	1	8.833600713	0.912878788
0.17558033	0.22694681	7.22786	134.38014	Ngeruktabel	6	Ngeruktabel	Gk3-1	0.833333333	0.9375	0.833333333	0.666666667	0.9	0.833333333	0.666666667	0.444444444	0.571428571	0.5	0.777777778	7.131150794	0.722222222
0.19517054	0.24779944	7.24502	134.39199	Ngeruktabel	6	Ngeruktabel	Gk4-6	0.846153846	1	0.333333333	0.916666667	1	0.928571429	1	0.636363636	1	0.888888889	0.909090909	8.53049728	0.912878788
0.16614481	0.23336218	7.2548	134.34366	Ngeruktabel	6	Ngeruktabel	Gk5-1	0.833333333	0.9375	0.727272727	0.666666667	0.9	0.833333333	0.8	0.6	0.75	0.714285714	0.777777778	7.706836219	0.763888889
0.19584834	0.24692885	7.24179	134.39515	Ngeruktabel	6	Ngeruktabel	Gk5-2	0.75	0.941176471	0.5	0.818181818	0.909090909	0.928571429	0.916666667	0.636363636	0.9	1	0.909090909	8.28057041	0.904545455
0.27658274	0.33788164	7.3316	134.4234	Ngeruktabel	6	Ngeruktabel	Gk5-5	0.636363636	0.8	0.846153846	0.916666667	0.909090909	1	0.916666667	0.846153846	0.9	1	1	8.771095571	0.904545455
0.25060832	0.29715823	7.26788	134.44364	Ngeruktabel	6	Ngeruktabel	Gk7-7	0.846153846	1	0.846153846	0.916666667	1	0.928571429	0.916666667	0.75	0.9	0.888888889	0.909090909	8.973620824	0.904545455
0.23498018	0.28625819	7.27042	134.42271	Ngeruktabel	6	Ngeruktabel	Gk8-4	0.846153846	0.941176471	0.636363636	0.916666667	0.909090909	1	0.916666667	0.75	0.9	1	1	8.816118196	0.912878788
0.14540851	0.19036477	7.19364	134.36525	Southern	6	Euidelchol	Ik8-2	1	1	0.923076923	0.666666667	1	0.444444444	0.8	0.833333333	0.75	0.714285714	0.166666667	7.854029304	0.816666667
0.12862744	0.15674351	7.15335	134.36124	Southern	6	Mecherchar	Mc4-1	1	1	1	0.8	1	0.444444444	0.8	0.833333333	0.75	0.714285714	0.166666667	8.064285714	0.816666667
0.11100878	0.14114386	7.1475	134.34439	Southern	6	Mecherchar	Mc6-1	1	1	1	0.8	1	0.444444444	0.8	0.833333333	0.75	0.714285714	0.428571429	8.326190476	0.816666667
0.13422209	0.16332724	7.15789	134.36602	Southern	6	Mecherchar	Mc6-4	1	1	1	0.8	1	0.444444444	0.8	0.833333333	0.75	0.714285714	0.166666667	8.064285714	0.816666667
0.29916088	0.34851205	7.31006	134.4732	Koror	6	Ulebsechel	Ub7-1	0.333333333	0.714285714	0.75	0.916666667	0.909090909	1	0.916666667	0.75	0.9	1	1	8.19004329	0.904545455
0.30767255	0.35776498	7.31857	134.47739	Koror	6	Ulebsechel	Ub8-1	0.333333333	0.714285714	0.846153846	1	1	1	1	0.928571429	1	1	1	8.822344322	1
0.39638877	0.4389807	7.34913	134.56468	Airai	5	Pkulaklim	BA5-4	0.923076923	0.785714286	1	0.909090909	0.166666667	1	0.909090909	0.923076923	0.888888889	1	1	8.505605506	0.916083916
0.39990515	0.44193591	7.34893	134.56903	Airai	5	Pkulaklim	BA5-5	0.923076923	0.785714286	1	0.909090909	0.166666667	1	0.909090909	0.923076923	0.888888889	1	1	8.505605506	0.916083916
0.4188081	0.45948271	7.35471	134.58781	Airai	5	Oikull	BA6-1	0.923076923	0.785714286	1	0.909090909	0.166666667	1	0.909090909	0.923076923	0.888888889	1	1	8.505605506	0.916083916
0.29952358	0.35797612	7.34074	134.44695	Koror	5	Ngerchaol	Ch5-1	0.6	0.692307692	1	0.909090909	0.9	1	0.909090909	0.923076923	0.888888889	1	1	8.822455322	0.909090909
0.06257939	0.05866967	7.0899	134.2836	Southern	5	Carp	Cp6-1	0.916666667	0.933333333	1	0.428571429	0.888888889	0.818181818	0.625	0.555555556	0.2	0.4	0.75	6.698015873	0.6875
0.23858521	0.29306838	7.28197	134.41816	Ngeruktabel	5	Ngermedai	Gk7-1	0.833333333	0.9375	0.444444444	1	1	1	1	0.833333333	1	1	1	9.048611111	1
0.23172441	0.28518306	7.27404	134.41578	Ngeruktabel	5	Ngeruktabel	Gk7-2	0.833333333	1	0.444444444	1	1	1	1	0.727272727	1	1	1	9.005050505	1
0.16638209	0.22146565	7.22917	134.3679	Ngeruktabel	5	Ngeruktabel	Gk7-3	0.727272727	0.9375	0.6	0.909090909	0.9	1	0.909090909	0.444444444	0.888888889	0.875	1	8.191287879	0.894444444
0.24092746	0.2973363	7.28913	134.41509	Ngeruktabel	5	UetEraRebotel	Gk7-4	0.727272727	0.9375	0.6	1	1	1	1	0.833333333	1	1	1	9.098106061	1
0.2710865	0.32390327	7.30113	134.44449	Ngeruktabel	5	Ngeruktabel	Gk7-5	0.833333333	1	0.727272727	0.909090909	1	0.923076923	1	0.833333333	1	1	0.9	9.203030303	0.954545455
0.21624938	0.26607472	7.25318	134.41208	Ngeruktabel	5	Ngeruktabel	Gk8-5	0.833333333	0.9375	0.727272727	0.909090909	0.9	1	0.909090909	0.833333333	0.888888889	1	1	8.938510101	0.904545455
0.24361743	0.28914961	7.26026	134.44026	Ngeruktabel	5	Ngeruktabel	Gk8-7	0.727272727	0.9375	0.833333333	0.909090909	0.9	1	0.909090909	0.727272727	0.888888889	1	1	8.832449495	0.904545455
0.13920523	0.18385781	7.18895	134.36063	Southern	5	Euidelchol	Ik6-1	1	1	0.916666667	0.625	1	0.555555556	0.777777778	0.818181818	0.714285714	0.666666667	0.333333333	7.851911977	0.797979798
0.05505784	0.13882086	7.17827	134.25987	Southern	5	Ngerukeuid	JCM3502	0.923076923	1	0.833333333	0.8	1	0.923076923	0.909090909	0.444444444	0.75	0.5	0.9	8.05994561	0.866666667
0.34613219	0.39717533	7.34936	134.50199	Koror	5	Sngall	Ko5-1	0.6	0.692307692	1	0.909090909	0.9	1	0.909090909	0.923076923	0.888888889	1	1	8.822455322	0.909090909
0.32565616	0.37290932	7.32103	134.49806	Koror	5	Ngermeuangel	Ko6-1	0.6	0.583333333	1	0.909090909	0.9	1	0.909090909	0.923076923	0.888888889	1	1	8.713480963	0.909090909
0.12805859	0.15863005	7.1572	134.35986	Southern	5	Mecherchar	Mc1-1	1	1	1	0.777777778	1	0.555555556	0.777777778	0.818181818	0.714285714	0.666666667	0.333333333	8.088023088	0.797979798
0.14394981	0.16333662	7.14527	134.37795	Southern	5	Mecherchar	Mc5-1	1	1	1	0.777777778	1	0.555555556	0.777777778	0.818181818	0.714285714	0.666666667	0.333333333	8.088023088	0.797979798
0.13544274	0.15945487	7.14965	134.36879	Southern	5	Mecherchar	Mc6-2	1	1	1	0.777777778	1	0.555555556	0.777777778	0.818181818	0.714285714	0.666666667	0.333333333	8.088023088	0.797979798
0.14880566	0.18075003	7.17074	134.37779	Southern	5	Mecherchar	Mc6-3	1	1	1	0.909090909	1	0.444444444	0.909090909	0.923076923	0.888888889	0.875	0.428571429	8.933719059	0.916083916
0.1185791	0.1570784	7.16505	134.34793	Southern	5	Mecherchar	Mc6-5	1	1	0.916666667	0.625	1	0.555555556	0.777777778	0.818181818	0.714285714	0.666666667	0.333333333	7.851911977	0.797979798
0.12366395	0.1547101	7.15566	134.3557	Southern	5	Mecherchar	Mc8-4	1	1	0.916666667	0.625	1	0.555555556	0.777777778	0.818181818	0.714285714	0.666666667	0.333333333	7.851911977	0.797979798
0.08648714	0.1266996	7.14777	134.31937	Southern	5	Omegang	Om5-1	1	1	0.916666667	0.625	1	0.818181818	0.777777778	0.555555556	0.5	0	0.75	7.125	0.763888889
0.08530178	0.12257877	7.14311	134.31906	Southern	5	Babelomekang	Om7-1	1	1	0.916666667	0.625	1	0.818181818	0.777777778	0.555555556	0.5	0	0.75	7.125	0.763888889
0.11395438	0.02581919	7.0156	134.24388	Southern	5	Peleliu	Pe1-1	0.923076923	0.9375	1	0.285714286	0.9	0.833333333	0.5	0.6	0	0.5	0.777777778	6.424068987	0.688888889
0.09148994	0	7.0396	134.2534	Southern	5	Peleliu	Pe2-1	1	1	0.916666667	0.428571429	1	0.7	0.777777778	0.7	0.5	0.4	0.571428571	7.294444444	0.738888889
0.0611993	0.13752622	7.17541667	134.275017	Southern	5	Bkulomererall	RJR15_19	0.923076923	1	0.833333333	0.666666667	1	0.833333333	0.8	0.444444444	0.571428571	0.2	0.777777778	7.216727717	0.788888889
0.30553114	0.35306322	7.30829	134.48244	Koror	5	Ulebsechel	Ub6-1	0.444444444	0.692307692	0.833333333	0.909090909	0.9	1	0.909090909	0.833333333	0.888888889	1	1	8.41048951	0.894444444
0.30394636	0.35357906	7.31437	134.47593	Koror	5	Ulebsechel	Ub7-2	0.444444444	0.785714286	0.833333333	1	1	1	1	0.923076923	1	1	1	8.986568987	1
0.30760546	0.36049205	7.32811	134.46954	Koror	5	Ulebsechel	Ub7-3	0.444444444	0.583333333	0.923076923	0.909090909	0.9	1	0.909090909	0.923076923	0.888888889	1	1	8.481002331	0.909090909
0.16453908	0.2442965	7.27866	134.30371	Southern	5	UlongEast	Uo8-4	0.916666667	0.933333333	1	0.625	0.888888889	0.818181818	0.428571429	0.7	0.5	0.666666667	0.75	7.409126984	0.725
0.16371494	0.24724929	7.28466	134.28623	Southern	5	UlongWest	Uo8-5	1	1	1	0.625	1	0.818181818	0.428571429	0.818181818	0.5	0.666666667	0.75	7.788419913	0.784090909
0.36803832	0.41774914	7.35971	134.52181	Airai	4	Ngeream	BA3-1	1	0.857142857	1	1	0.888888889	1	1	1	1	1	1	9.746031746	1
0.36900263	0.41532707	7.34678	134.53293	Airai	4	Ngeream	BA4-2	1	0.769230769	1	1	0.888888889	1	1	1	1	1	1	9.658119658	1
0.42047718	0.46371359	7.36737	134.58142	Airai	4	BA7-1	BA7-1	1	0.933333333	1	1	0.333333333	1	1	1	1	1	1	9.266666667	1
0.37861295	0.42193654	7.34085	134.54883	Airai	4	Chasechosou 	BA8-1	1	0.769230769	1	1	0.75	1	1	1	1	1	1	9.519230769	1
0.30374673	0.36127036	7.34093	134.45269	Koror	4	Ngerchaol	Ch6-1	0.555555556	0.769230769	1	0.9	0.888888889	1	0.9	0.916666667	0.875	1	1	8.80534188	0.9
0.29171064	0.35281642	7.3432	134.43314	Koror	4	Ngerchaol	Ch6-2	0.555555556	0.769230769	0.916666667	0.9	0.888888889	1	0.9	0.916666667	0.875	1	1	8.722008547	0.9
0.28785591	0.34928431	7.34112	134.42971	Koror	4	Ngerchaol	Ch8-1	0.555555556	0.769230769	0.916666667	0.9	0.888888889	1	0.9	0.916666667	0.875	1	1	8.722008547	0.9
0.29589063	0.35583472	7.34278	134.43968	Koror	4	Ngerchaol	Ch8-2	0.555555556	0.769230769	1	0.9	0.888888889	1	0.9	0.916666667	0.875	1	1	8.80534188	0.9
0.27129346	0.32309201	7.29813	134.44718	Ngeruktabel	4	Ngeruktabel	Gk5-4	0.818181818	0.933333333	0.916666667	0.9	0.888888889	1	0.9	0.818181818	0.875	1	1	9.050252525	0.9
0.16812201	0.23877287	7.26373	134.33573	Ngeruktabel	4	Ngebedangel	Gk6-3	0.916666667	1	0.7	0.777777778	1	0.818181818	0.9	0.7	0.875	0.666666667	0.75	8.286111111	0.826388889
0.24252325	0.30060124	7.29505	134.41185	Ngeruktabel	4	LukelaBeab	Gk8-2	0.818181818	0.933333333	0.7	1	1	1	1	0.916666667	1	1	1	9.368181818	1
0.16603614	0.21471054	7.21523	134.37691	Ngeruktabel	4	Ongetkatel	Gk8-3	1	1	0.8	0.75	1	0.8	0.888888889	0.8	0.857142857	0.833333333	0.714285714	8.643650794	0.845238095
0.19875939	0.24771498	7.23871	134.40077	Ngeruktabel	4	Ngeruktabel	Gk8-6	0.916666667	1	0.7	1	1	1	1	0.7	1	0.857142857	1	9.173809524	1
0.02801285	0.06519977	7.1046	134.2483	Southern	4	Bailechesengei	Gm6-1	1	1	1	0.571428571	1	0.8	0.75	0.666666667	0.4	0.25	0.714285714	7.352380952	0.732142857
0.02830159	0.06890464	7.1085	134.2542	Southern	4	Bailechesengei	Gm6-3	1	1	1	0.571428571	1	0.8	0.75	0.666666667	0.4	0.25	0.714285714	7.352380952	0.732142857
0.06096297	0.13732713	7.17524	134.27486	Southern	4	Bkulomekerall	JCM3508	0.916666667	1	0.818181818	0.777777778	1	0.916666667	0.9	0.555555556	0.714285714	0.4	0.888888889	7.971356421	0.853535354
0.32680512	0.37231746	7.31549	134.50341	Koror	4	Ngermeuangel	Ko5-5	0.555555556	0.666666667	1	0.9	0.888888889	1	0.9	0.916666667	0.875	1	1	8.702777778	0.9
0.32421236	0.37237956	7.32334	134.49456	Koror	4	Ngeteklou	Ko5-6	0.555555556	0.666666667	0.916666667	1	1	1	1	1	1	1	1	9.138888889	1
0.11070112	0.15125889	7.16351	134.34015	Southern	4	Mc3-1	Mc3-1	1	1	1	0.75	1	0.666666667	0.75	0.8	0.666666667	0.6	0.5	8.066666667	0.775
0.13042423	0.171528	7.17682	134.35632	Southern	4	Mecherchar	Mc5-3	1	1	1	0.75	1	0.666666667	0.75	0.8	0.666666667	0.6	0.5	8.066666667	0.775
0.11687064	0.15830638	7.16882	134.34485	Southern	4	Mecherchar	Mc8-1	1	1	1	0.75	1	0.666666667	0.75	0.8	0.666666667	0.6	0.5	8.066666667	0.775
0.14896092	0.17818386	7.16566	134.37933	Southern	4	Mecherchar	Mc8-5	1	1	1	0.9	1	0.555555556	0.9	0.916666667	0.875	0.857142857	0.571428571	9.020238095	0.908333333
0.3087207	0.36459498	7.33916	134.46123	Koror	4	Ngermalk	Nm4-1	0.555555556	0.769230769	0.916666667	0.9	0.888888889	1	0.9	0.916666667	0.875	1	1	8.722008547	0.9
0.07153137	0.11001787	7.13618	134.30609	Southern	4	Ioulomekang	Om7-2	1	1	1	0.571428571	1	0.8	0.75	0.666666667	0.4	0.25	0.714285714	7.352380952	0.732142857
0.08497836	0.12993089	7.15323	134.31641	Southern	4	Ngesomel	Om8-1	1	1	1	0.571428571	1	0.8	0.75	0.666666667	0.4	0.25	0.714285714	7.352380952	0.732142857
0.10283239	0.0120669	7.0277	134.2514	Southern	4	Peleliu	Pe2-2	0.916666667	0.933333333	1	0.428571429	0.888888889	0.916666667	0.777777778	0.7	0.5	0.666666667	0.888888889	7.700793651	0.833333333
0.04874166	0.13196231	7.17143333	134.259233	Southern	4	Ngerukeuid	RJR8_19	1	1	0.916666667	0.777777778	1	0.916666667	0.9	0.555555556	0.714285714	0.4	0.888888889	8.153174603	0.894444444
0.16346211	0.2477432	7.28566	134.28223	Southern	4	UlongWest	Uo3-1	1	1	1	0.571428571	1	0.8	0.571428571	0.8	0.4	0.6	0.714285714	7.657142857	0.757142857
0.15744925	0.23913107	7.27535	134.29347	Southern	4	UlongEast	Uo7-2	1	1	1	0.75	1	0.8	0.571428571	0.8	0.666666667	0.6	0.714285714	8.102380952	0.775
0.15989825	0.24115427	7.27696	134.29601	Southern	4	UlongEast	Uo8-2	1	1	1	0.75	1	0.8	0.571428571	0.8	0.666666667	0.6	0.714285714	8.102380952	0.775
0.36526607	0.41555578	7.36006	134.51796	Airai	3	BA4-4	BA4-4	1	0.75	1	1	0.875	1	1	1	1	1	1	9.625	1
0.40970812	0.45187381	7.35571	134.5763	Airai	3	BA5-1	BA5-1	1	0.928571429	1	1	0.5	1	1	1	1	1	1	9.428571429	1
0.37112501	0.41288803	7.32969	134.54721	Airai	3	NgereamIsland	BA5-3	1	0.75	1	1	0.875	1	1	1	1	1	1	9.625	1
0.39913881	0.44046476	7.34539	134.57042	Airai	3	Pkulaklim	BA6-2	1	0.846153846	1	1	0.5	1	1	1	1	1	1	9.346153846	1
0.36982452	0.42035378	7.36425	134.52042	Airai	3	BA7-3	BA7-3	1	0.75	1	1	0.875	1	1	1	1	1	1	9.625	1
0.42586525	0.46818828	7.36664	134.58843	Airai	3	BA8-7	BA8-7	1	0.928571429	1	1	0.5	1	1	1	1	1	1	9.428571429	1
0.05116376	0.04969688	7.0879	134.2651	Southern	3	Cp6-2	Cp6-2	1	1	1	0.714285714	1	0.9	0.875	0.777777778	0.6	0.5	0.857142857	8.324206349	0.866071429
0.25486425	0.29971587	7.26573	134.45011	Ngeruktabel	3	Ngeruktabel	Gk6-4	0.8	1	0.8	1	1	1	1	0.8	1	1	1	9.4	1
0	0.09148994	7.1292	134.2349	Southern	3	Arimasuku	Gm5-1	1	1	0.9	0.714285714	1	0.777777778	0.875	0.9	0.833333333	0.8	0.666666667	8.689285714	0.8875
0.04868735	0.13199141	7.17147	134.25906	Southern	3	Ngerukeuid	JCM3501	1	1	1	0.75	1	0.909090909	0.888888889	0.666666667	0.666666667	0.6	0.875	8.447222222	0.881944444
0.3455455	0.39728957	7.35159	134.49937	Koror	3	Sngall	Ko2-1	0.666666667	0.75	1	0.888888889	0.875	1	0.888888889	0.909090909	0.857142857	1	1	8.835678211	0.888888889
0.34060012	0.38648955	7.32607	134.51284	Koror	3	Ngermeuangel	Ko3-1	0.666666667	0.846153846	1	0.888888889	0.875	1	0.888888889	0.909090909	0.857142857	1	1	8.931832057	0.888888889
0.3413289	0.39031245	7.3382	134.50476	Koror	3	Ngermeuangel	Ko5-2	0.8	0.75	1	0.888888889	0.875	1	0.888888889	0.909090909	0.857142857	1	1	8.969011544	0.888888889
0.32508001	0.37503457	7.33038	134.49025	Koror	3	Ngedesakr	Ko8-1	0.666666667	0.75	1	1	1	1	1	1	1	1	1	9.416666667	1
0.13945296	0.1665458	7.15697	134.37156	Southern	3	Mecherchar	Mc5-2	1	1	1	0.875	1	0.777777778	0.875	0.9	0.833333333	0.8	0.666666667	8.95	0.8875
0.12196769	0.16230692	7.1702	134.34977	Southern	3	Mecherchar	Mc8-2	1	1	1	0.875	1	0.777777778	0.875	0.9	0.833333333	0.8	0.666666667	8.95	0.8875
0.08535563	0.12607033	7.14773	134.31822	Southern	3	Babelomekang	Om6-1	1	1	1	0.714285714	1	0.777777778	0.714285714	0.777777778	0.6	0.5	0.666666667	7.973015873	0.746031746
0.11378581	0.02683282	7.0156	134.2414	Southern	3	Peleliu	Pe2-3	0.909090909	0.928571429	1	0.571428571	0.875	0.909090909	0.75	0.8	0.666666667	0.833333333	0.875	8.209090909	0.854166667
0.12367882	0.03530552	7.0058	134.2432	Southern	3	Peleliu	Pe2-5	0.909090909	0.928571429	1	0.571428571	0.875	0.909090909	0.571428571	0.8	0.4	0.833333333	0.875	7.763852814	0.854166667
0.05817988	0.13717582	7.1758	134.269733	Southern	3	island16	RJR13_19	0.909090909	1	0.909090909	0.75	1	0.909090909	0.888888889	0.666666667	0.666666667	0.6	0.875	8.26540404	0.881944444