distFromGm5.1	distFromPe2.1	lat	long	islandGroup	richness	island	localityCode	taxon	abundance	genus	species	subspp
0.143913768	0.172912476	7.16266	134.37487	Southern	8	Mecherchar	Mc2-1	H_elegantissima_anomphala	53	Hungerfordia	elegantissima	anomphala
0.148960923	0.178183862	7.16566	134.37933	Southern	4	Mecherchar	Mc8-5	H_elegantissima_anomphala	7	Hungerfordia	elegantissima	anomphala
0.244528276	0.288152806	7.25541	134.44434	Ngeruktabel	6	Ngeruktabel	Gk1-1	H_crassilabris_attenuata	15	Hungerfordia	crassilabris	attenuata
0.196682507	0.254825514	7.25942	134.3823	Ngeruktabel	9	Ongael	Gk1-2	H_crassilabris_attenuata	10	Hungerfordia	crassilabris	attenuata
0.224427708	0.2766459	7.26534	134.41332	Ngeruktabel	10	Ngeruktabel	Gk2-2	H_crassilabris_attenuata	9	Hungerfordia	crassilabris	attenuata
0.210727359	0.269975217	7.27319	134.38876	Ngeruktabel	7	Gk4-2	Gk4-2	H_crassilabris_attenuata	12	Hungerfordia	crassilabris	attenuata
0.246015922	0.297428751	7.27874	134.43025	Ngeruktabel	7	Ngeruktabel	Gk4-4	H_crassilabris_attenuata	3	Hungerfordia	crassilabris	attenuata
0.278534379	0.332769038	7.31106	134.44587	Ngeruktabel	8	Ngeruktabel	Gk6-2	H_crassilabris_attenuata	18	Hungerfordia	crassilabris	attenuata
0.238585206	0.293068379	7.28197	134.41816	Ngeruktabel	5	Ngermedai	Gk7-1	H_crassilabris_attenuata	21	Hungerfordia	crassilabris	attenuata
0.231724405	0.285183061	7.27404	134.41578	Ngeruktabel	5	Ngeruktabel	Gk7-2	H_crassilabris_attenuata	3	Hungerfordia	crassilabris	attenuata
0.24092746	0.297336303	7.28913	134.41509	Ngeruktabel	5	UetEraRebotel	Gk7-4	H_crassilabris_attenuata	9	Hungerfordia	crassilabris	attenuata
0.242523246	0.300601239	7.29505	134.41185	Ngeruktabel	4	LukelaBeab	Gk8-2	H_crassilabris_attenuata	24	Hungerfordia	crassilabris	attenuata
0.234980179	0.286258185	7.27042	134.42271	Ngeruktabel	6	Ngeruktabel	Gk8-4	H_crassilabris_attenuata	42	Hungerfordia	crassilabris	attenuata
0.216249376	0.266074724	7.25318	134.41208	Ngeruktabel	5	Ngeruktabel	Gk8-5	H_crassilabris_attenuata	22	Hungerfordia	crassilabris	attenuata
0.303746732	0.36127036	7.34093	134.45269	Koror	4	Ngerchaol	Ch6-1	H_crassilabris_crassilabris	18	Hungerfordia	crassilabris	crassilabris
0.29171064	0.352816422	7.3432	134.43314	Koror	4	Ngerchaol	Ch6-2	H_crassilabris_crassilabris	32	Hungerfordia	crassilabris	crassilabris
0.287855906	0.349284306	7.34112	134.42971	Koror	4	Ngerchaol	Ch8-1	H_crassilabris_crassilabris	15	Hungerfordia	crassilabris	crassilabris
0.29589063	0.355834724	7.34278	134.43968	Koror	4	Ngerchaol	Ch8-2	H_crassilabris_crassilabris	4	Hungerfordia	crassilabris	crassilabris
0.334175473	0.380142948	7.32207	134.5078	Koror	10	Ngermeuangel	Ko2-2	H_crassilabris_crassilabris	1	Hungerfordia	crassilabris	crassilabris
0.340600118	0.386489553	7.32607	134.51284	Koror	3	Ngermeuangel	Ko3-1	H_crassilabris_crassilabris	1	Hungerfordia	crassilabris	crassilabris
0.346132191	0.397175334	7.34936	134.50199	Koror	5	Sngall	Ko5-1	H_crassilabris_crassilabris	8	Hungerfordia	crassilabris	crassilabris
0.3087207	0.364594984	7.33916	134.46123	Koror	4	Ngermalk	Nm4-1	H_crassilabris_crassilabris	17	Hungerfordia	crassilabris	crassilabris
0.30394636	0.353579063	7.31437	134.47593	Koror	5	Ulebsechel	Ub7-2	H_crassilabris_crassilabris	3	Hungerfordia	crassilabris	crassilabris
0.307672548	0.35776498	7.31857	134.47739	Koror	6	Ulebsechel	Ub8-1	H_crassilabris_crassilabris	15	Hungerfordia	crassilabris	crassilabris
0	0.091489945	7.1292	134.2349	Southern	2	Dmasech	Gm5-2	H_goniobasis_dmasechensis	45	Hungerfordia	goniobasis	dmasechensis
0.409708116	0.451873812	7.35571	134.5763	Airai	3	BA5-1	BA5-1	H_echinata_echinata	44	Hungerfordia	echinata	echinata
0.396388765	0.438980705	7.34913	134.56468	Airai	5	Pkulaklim	BA5-4	H_echinata_echinata	9	Hungerfordia	echinata	echinata
0.399905151	0.441935907	7.34893	134.56903	Airai	5	Pkulaklim	BA5-5	H_echinata_echinata	93	Hungerfordia	echinata	echinata
0.418808104	0.459482709	7.35471	134.58781	Airai	5	BA6-1	BA6-1	H_echinata_echinata	85	Hungerfordia	echinata	echinata
0.42047718	0.46371359	7.36737	134.58142	Airai	4	BA7-1	BA7-1	H_echinata_echinata	123	Hungerfordia	echinata	echinata
0.425865254	0.468188277	7.36664	134.58843	Airai	3	BA8-7	BA8-7	H_echinata_echinata	60	Hungerfordia	echinata	echinata
0.163714937	0.247249292	7.28466	134.28623	Southern	5	UlongWest	Uo8-5	H_goniobasis_exserta	16	Hungerfordia	goniobasis	exserta
0.143913768	0.172912476	7.16266	134.37487	Southern	8	Mecherchar	Mc2-1	H_goniobasis_goniobasis	6	Hungerfordia	goniobasis	goniobasis
0.111008784	0.141143863	7.1475	134.34439	Southern	6	Mecherchar	Mc6-1	H_goniobasis_goniobasis	2	Hungerfordia	goniobasis	goniobasis
0.196682507	0.254825514	7.25942	134.3823	Ngeruktabel	9	Ongael	Gk1-2	H_lutea_hemilaevis	73	Hungerfordia	lutea	hemilaevis
0.186721142	0.245533034	7.25318	134.37452	Ngeruktabel	7	Gk4-3	Gk4-3	H_lutea_hemilaevis	26	Hungerfordia	lutea	hemilaevis
0.195170542	0.247799444	7.24502	134.39199	Ngeruktabel	6	Ngeruktabel	Gk4-6	H_lutea_hemilaevis	7	Hungerfordia	lutea	hemilaevis
0.195848336	0.246928853	7.24179	134.39515	Ngeruktabel	6	Ngeruktabel	Gk5-2	H_lutea_hemilaevis	1	Hungerfordia	lutea	hemilaevis
0.271293463	0.323092014	7.29813	134.44718	Ngeruktabel	4	Ngeruktabel	Gk5-4	H_lutea_lutea	65	Hungerfordia	lutea	lutea
0.276582736	0.337881636	7.3316	134.4234	Ngeruktabel	6	Ngeruktabel	Gk5-5	H_lutea_lutea	66	Hungerfordia	lutea	lutea
0.271086505	0.323903271	7.30113	134.44449	Ngeruktabel	5	Ngeruktabel	Gk7-5	H_lutea_lutea	2	Hungerfordia	lutea	lutea
0.278294834	0.331780392	7.30852	134.44772	Ngeruktabel	8	Ngeruktabel	Gk7-8	H_lutea_lutea	16	Hungerfordia	lutea	lutea
0.196682507	0.254825514	7.25942	134.3823	Ngeruktabel	9	Ongael	Gk1-2	H_papilio_papilio	27	Hungerfordia	papilio	papilio
0.224427708	0.2766459	7.26534	134.41332	Ngeruktabel	10	Ngeruktabel	Gk2-2	H_papilio_papilio	45	Hungerfordia	papilio	papilio
0.175580333	0.226946811	7.22786	134.38014	Ngeruktabel	6	Ngeruktabel	Gk3-1	H_papilio_papilio	22	Hungerfordia	papilio	papilio
0.210727359	0.269975217	7.27319	134.38876	Ngeruktabel	7	Gk4-2	Gk4-2	H_papilio_papilio	40	Hungerfordia	papilio	papilio
0.186721142	0.245533034	7.25318	134.37452	Ngeruktabel	7	Gk4-3	Gk4-3	H_papilio_papilio	55	Hungerfordia	papilio	papilio
0.249371158	0.300188475	7.27943	134.43394	Ngeruktabel	7	Ngeruktabel	Gk4-5	H_papilio_papilio	11	Hungerfordia	papilio	papilio
0.195170542	0.247799444	7.24502	134.39199	Ngeruktabel	6	Ngeruktabel	Gk4-6	H_papilio_papilio	5	Hungerfordia	papilio	papilio
0.166144809	0.233362181	7.2548	134.34366	Ngeruktabel	6	Ngeruktabel	Gk5-1	H_papilio_papilio	34	Hungerfordia	papilio	papilio
0.168122009	0.238772875	7.26373	134.33573	Ngeruktabel	4	Ngebedangel	Gk6-3	H_papilio_papilio	25	Hungerfordia	papilio	papilio
0.166382093	0.221465652	7.22917	134.3679	Ngeruktabel	5	Ngeruktabel	Gk7-3	H_papilio_papilio	35	Hungerfordia	papilio	papilio
0.198759395	0.247714975	7.23871	134.40077	Ngeruktabel	4	Ngeruktabel	Gk8-6	H_papilio_papilio	19	Hungerfordia	papilio	papilio
0.05505784	0.138820855	7.17827	134.25987	Southern	5	Ngerukeuid	JCM3502	H_papilio_papilio	4	Hungerfordia	papilio	papilio
0.060962966	0.137327132	7.17524	134.27486	Southern	4	Bkulomekerall	JCM3508	H_papilio_papilio	1	Hungerfordia	papilio	papilio
0.086487142	0.126699605	7.14777	134.31937	Southern	5	Babelomekang	Om5-1	H_papilio_papilio	3	Hungerfordia	papilio	papilio
0.08530178	0.122578773	7.14311	134.31906	Southern	5	Babelomekang	Om7-1	H_papilio_papilio	25	Hungerfordia	papilio	papilio
0.0611993	0.137526225	7.17541667	134.275017	Southern	5	Bkulomekerall	RJR15_19	H_papilio_papilio	4	Hungerfordia	papilio	papilio
0.048741656	0.131962308	7.17143333	134.259233	Southern	4	Ngerukeuid	RJR8_19	H_papilio_papilio	1	Hungerfordia	papilio	papilio
0.055068486	0.13881893	7.17826667	134.2599	Southern	9	Ngerukeuid	RJR9_19	H_papilio_papilio	3	Hungerfordia	papilio	papilio
0.150140384	0.194537453	7.19568	134.36952	Southern	7	Euidelchol	Ik3-1	H_pyramis_pteroma	3	Hungerfordia	pyramis	pteroma
0.143913768	0.172912476	7.16266	134.37487	Southern	8	Mecherchar	Mc2-1	H_pyramis_pteroma	8	Hungerfordia	pyramis	pteroma
0.128627439	0.156743511	7.15335	134.36124	Southern	6	Mecherchar	Mc4-1	H_pyramis_pteroma	26	Hungerfordia	pyramis	pteroma
0.148805657	0.180750025	7.17074	134.37779	Southern	5	Mecherchar	Mc6-3	H_pyramis_pteroma	1	Hungerfordia	pyramis	pteroma
0.134222094	0.163327244	7.15789	134.36602	Southern	6	Mecherchar	Mc6-4	H_pyramis_pteroma	1	Hungerfordia	pyramis	pteroma
0.148960923	0.178183862	7.16566	134.37933	Southern	4	Mecherchar	Mc8-5	H_pyramis_pteroma	2	Hungerfordia	pyramis	pteroma
0.056621992	0.057585588	7.0919	134.2775	Southern	6	Carp	Cp1-1	H_pyramis_pyramis	12	Hungerfordia	pyramis	pyramis
0.113954379	0.025819187	7.0156	134.24388	Southern	5	Peleliu	Pe1-1	H_pyramis_pyramis	2	Hungerfordia	pyramis	pyramis
0.123678818	0.035305524	7.0058	134.2432	Southern	3	Peleliu	Pe2-5	H_pyramis_pyramis	13	Hungerfordia	pyramis	pyramis
0.163462107	0.247743199	7.28566	134.28223	Southern	4	UlongWest	Uo3-1	H_pyramis_pyramis	10	Hungerfordia	pyramis	pyramis
0.163714937	0.247249292	7.28466	134.28623	Southern	5	UlongWest	Uo8-5	H_pyramis_pyramis	1	Hungerfordia	pyramis	pyramis
0.056621992	0.057585588	7.0919	134.2775	Southern	6	Carp	Cp1-1	H_ringens_ringens	1	Hungerfordia	ringens	ringens
0.06257939	0.058669668	7.0899	134.2836	Southern	5	Carp	Cp6-1	H_ringens_ringens	1	Hungerfordia	ringens	ringens
0.051163757	0.049696881	7.0879	134.2651	Southern	3	Cp6-2	Cp6-2	H_ringens_ringens	10	Hungerfordia	ringens	ringens
0	0.091489945	7.1292	134.2349	Southern	2	Dmasech	Gm5-2	H_ringens_ringens	88	Hungerfordia	ringens	ringens
0.028012854	0.06519977	7.1046	134.2483	Southern	4	Bailechesengei	Gm6-1	H_ringens_ringens	23	Hungerfordia	ringens	ringens
0.02830159	0.068904644	7.1085	134.2542	Southern	4	Bailechesengei	Gm6-3	H_ringens_ringens	23	Hungerfordia	ringens	ringens
0.048687355	0.131991411	7.17147	134.25906	Southern	3	Ngerukeuid	JCM3501	H_ringens_ringens	2	Hungerfordia	ringens	ringens
0.05505784	0.138820855	7.17827	134.25987	Southern	5	Ngerukeuid	JCM3502	H_ringens_ringens	68	Hungerfordia	ringens	ringens
0.058348063	0.13731767	7.17593	134.26984	Southern	2	island16	JCM3507	H_ringens_ringens	2	Hungerfordia	ringens	ringens
0.060962966	0.137327132	7.17524	134.27486	Southern	4	Bkulomekerall	JCM3508	H_ringens_ringens	24	Hungerfordia	ringens	ringens
0.057871378	0.147726918	7.18678	134.2407	Southern	1	Km7-2	Km7-2	H_ringens_ringens	13	Hungerfordia	ringens	ringens
0.086487142	0.126699605	7.14777	134.31937	Southern	5	Babelomekang	Om5-1	H_ringens_ringens	3	Hungerfordia	ringens	ringens
0.08530178	0.122578773	7.14311	134.31906	Southern	5	Babelomekang	Om7-1	H_ringens_ringens	8	Hungerfordia	ringens	ringens
0.071531367	0.110017874	7.13618	134.30609	Southern	4	Ioulomekang	Om7-2	H_ringens_ringens	3	Hungerfordia	ringens	ringens
0.084978356	0.129930893	7.15323	134.31641	Southern	4	Ngesomel	Om8-1	H_ringens_ringens	1	Hungerfordia	ringens	ringens
0.113954379	0.025819187	7.0156	134.24388	Southern	5	Peleliu	Pe1-1	H_ringens_ringens	6	Hungerfordia	ringens	ringens
0.091489945	0	7.0396	134.2534	Southern	5	Peleliu	Pe2-1	H_ringens_ringens	8	Hungerfordia	ringens	ringens
0.102832388	0.012066897	7.0277	134.2514	Southern	4	Peleliu	Pe2-2	H_ringens_ringens	6	Hungerfordia	ringens	ringens
0.139985785	0.055476572	6.9893	134.23	Southern	1	Peleliu	Pe2-4	H_ringens_ringens	2	Hungerfordia	ringens	ringens
0.111307592	0.042361893	7.0359	134.2956	Southern	2	Ngekull	Pe5-3	H_ringens_ringens	41	Hungerfordia	ringens	ringens
0.058179875	0.137175825	7.1758	134.269733	Southern	3	island16	RJR13_19	H_ringens_ringens	20	Hungerfordia	ringens	ringens
0.0611993	0.137526225	7.17541667	134.275017	Southern	5	Bkulomekerall	RJR15_19	H_ringens_ringens	20	Hungerfordia	ringens	ringens
0.048741656	0.131962308	7.17143333	134.259233	Southern	4	Ngerukeuid	RJR8_19	H_ringens_ringens	7	Hungerfordia	ringens	ringens
0.055068486	0.13881893	7.17826667	134.2599	Southern	9	Ngerukeuid	RJR9_19	H_ringens_ringens	37	Hungerfordia	ringens	ringens
0.186721142	0.245533034	7.25318	134.37452	Ngeruktabel	7	Gk4-3	Gk4-3	H_ringens_rotundata	6	Hungerfordia	ringens	rotundata
0.150140384	0.194537453	7.19568	134.36952	Southern	7	Euidelchol	Ik3-1	H_papilio_stenoptera	111	Hungerfordia	papilio	stenoptera
0.139205228	0.183857813	7.18895	134.36063	Southern	5	Euidelchol	Ik6-1	H_papilio_stenoptera	24	Hungerfordia	papilio	stenoptera
0.145408515	0.190364766	7.19364	134.36525	Southern	6	Euidelchol	Ik8-2	H_papilio_stenoptera	36	Hungerfordia	papilio	stenoptera
0.128058587	0.158630046	7.1572	134.35986	Southern	5	Mecherchar	Mc1-1	H_papilio_stenoptera	58	Hungerfordia	papilio	stenoptera
0.143913768	0.172912476	7.16266	134.37487	Southern	8	Mecherchar	Mc2-1	H_papilio_stenoptera	6	Hungerfordia	papilio	stenoptera
0.110701123	0.151258886	7.16351	134.34015	Southern	4	Mc3-1	Mc3-1	H_papilio_stenoptera	33	Hungerfordia	papilio	stenoptera
0.128627439	0.156743511	7.15335	134.36124	Southern	6	Mecherchar	Mc4-1	H_papilio_stenoptera	63	Hungerfordia	papilio	stenoptera
0.143949809	0.16333662	7.14527	134.37795	Southern	5	Mecherchar	Mc5-1	H_papilio_stenoptera	1	Hungerfordia	papilio	stenoptera
0.139452962	0.166545797	7.15697	134.37156	Southern	3	Mecherchar	Mc5-2	H_papilio_stenoptera	7	Hungerfordia	papilio	stenoptera
0.130424234	0.171528	7.17682	134.35632	Southern	4	Mecherchar	Mc5-3	H_papilio_stenoptera	52	Hungerfordia	papilio	stenoptera
0.111008784	0.141143863	7.1475	134.34439	Southern	6	Mecherchar	Mc6-1	H_papilio_stenoptera	2	Hungerfordia	papilio	stenoptera
0.135442736	0.159454867	7.14965	134.36879	Southern	5	Mecherchar	Mc6-2	H_papilio_stenoptera	22	Hungerfordia	papilio	stenoptera
0.148805657	0.180750025	7.17074	134.37779	Southern	5	Mecherchar	Mc6-3	H_papilio_stenoptera	13	Hungerfordia	papilio	stenoptera
0.134222094	0.163327244	7.15789	134.36602	Southern	6	Mecherchar	Mc6-4	H_papilio_stenoptera	13	Hungerfordia	papilio	stenoptera
0.118579102	0.157078399	7.16505	134.34793	Southern	5	Mecherchar	Mc6-5	H_papilio_stenoptera	10	Hungerfordia	papilio	stenoptera
0.116870642	0.158306383	7.16882	134.34485	Southern	4	Mecherchar	Mc8-1	H_papilio_stenoptera	27	Hungerfordia	papilio	stenoptera
0.121967688	0.162306922	7.1702	134.34977	Southern	3	Mecherchar	Mc8-2	H_papilio_stenoptera	49	Hungerfordia	papilio	stenoptera
0.1187895	0.155335377	7.16197	134.34908	Southern	2	Mecherchar	Mc8-3	H_papilio_stenoptera	11	Hungerfordia	papilio	stenoptera
0.123663946	0.154710095	7.15566	134.3557	Southern	5	Mecherchar	Mc8-4	H_papilio_stenoptera	32	Hungerfordia	papilio	stenoptera
0.148960923	0.178183862	7.16566	134.37933	Southern	4	Mecherchar	Mc8-5	H_papilio_stenoptera	36	Hungerfordia	papilio	stenoptera
0.367074075	0.412714265	7.34274	134.53347	Airai	8	NgereamIsland	BA4-1	H_crassilabris_tridentata	15	Hungerfordia	crassilabris	tridentata
0.369002625	0.415327068	7.34678	134.53293	Airai	4	Ngeream	BA4-2	H_crassilabris_tridentata	37	Hungerfordia	crassilabris	tridentata
0.368423644	0.410539676	7.32942	134.54417	Airai	10	NgereamIsland	BA5-2	H_crassilabris_tridentata	7	Hungerfordia	crassilabris	tridentata
0.371125014	0.412888029	7.32969	134.54721	Airai	3	NgereamIsland	BA5-3	H_crassilabris_tridentata	17	Hungerfordia	crassilabris	tridentata
0.367088648	0.415097017	7.35224	134.52646	Airai	7	Ngeream	BA6-3	H_crassilabris_tridentata	2	Hungerfordia	crassilabris	tridentata
0.367194187	0.414013479	7.34755	134.53012	Airai	6	Ngeream	BA6-4	H_crassilabris_tridentata	8	Hungerfordia	crassilabris	tridentata
0.36950922	0.412823965	7.33496	134.54182	Airai	6	NgereamIsland	BA8-3	H_crassilabris_tridentata	23	Hungerfordia	crassilabris	tridentata
0.362732443	0.40605914	7.33065	134.53655	Airai	8	NgereamIsland	BA8-4	H_crassilabris_tridentata	10	Hungerfordia	crassilabris	tridentata
0.364974395	0.409307626	7.33612	134.53555	Airai	6	NgereamIsland	BA8-5	H_crassilabris_tridentata	28	Hungerfordia	crassilabris	tridentata
0.368038324	0.417749135	7.35971	134.52181	Airai	4	Ngeream	BA3-1	H_echinata_tubulispina	91	Hungerfordia	echinata	tubulispina
0.150140384	0.194537453	7.19568	134.36952	Southern	7	Euidelchol	Ik3-1	H_ringens_ventrinodus	43	Hungerfordia	ringens	ventrinodus
0.145408515	0.190364766	7.19364	134.36525	Southern	6	Euidelchol	Ik8-2	H_ringens_ventrinodus	11	Hungerfordia	ringens	ventrinodus
0.128058587	0.158630046	7.1572	134.35986	Southern	5	Mecherchar	Mc1-1	H_ringens_ventrinodus	2	Hungerfordia	ringens	ventrinodus
0.143913768	0.172912476	7.16266	134.37487	Southern	8	Mecherchar	Mc2-1	H_ringens_ventrinodus	66	Hungerfordia	ringens	ventrinodus
0.128627439	0.156743511	7.15335	134.36124	Southern	6	Mecherchar	Mc4-1	H_ringens_ventrinodus	30	Hungerfordia	ringens	ventrinodus
0.143949809	0.16333662	7.14527	134.37795	Southern	5	Mecherchar	Mc5-1	H_ringens_ventrinodus	38	Hungerfordia	ringens	ventrinodus
0.111008784	0.141143863	7.1475	134.34439	Southern	6	Mecherchar	Mc6-1	H_ringens_ventrinodus	8	Hungerfordia	ringens	ventrinodus
0.135442736	0.159454867	7.14965	134.36879	Southern	5	Mecherchar	Mc6-2	H_ringens_ventrinodus	2	Hungerfordia	ringens	ventrinodus
0.148805657	0.180750025	7.17074	134.37779	Southern	5	Mecherchar	Mc6-3	H_ringens_ventrinodus	1	Hungerfordia	ringens	ventrinodus
0.134222094	0.163327244	7.15789	134.36602	Southern	6	Mecherchar	Mc6-4	H_ringens_ventrinodus	2	Hungerfordia	ringens	ventrinodus
0.368423644	0.410539676	7.32942	134.54417	Airai	10	NgereamIsland	BA5-2	H_alata	18	Hungerfordia	alata	NA
0.299523579	0.357976119	7.34074	134.44695	Koror	5	Ngerchaol	Ch5-1	H_alata	26	Hungerfordia	alata	NA
0.303746732	0.36127036	7.34093	134.45269	Koror	4	Ngerchaol	Ch6-1	H_alata	37	Hungerfordia	alata	NA
0.29589063	0.355834724	7.34278	134.43968	Koror	4	Ngerchaol	Ch8-2	H_alata	34	Hungerfordia	alata	NA
0.334175473	0.380142948	7.32207	134.5078	Koror	10	Ngermeuangel	Ko2-2	H_alata	112	Hungerfordia	alata	NA
0.324212361	0.372379555	7.32334	134.49456	Koror	4	Ngeteklou	Ko5-6	H_alata	2	Hungerfordia	alata	NA
0.32565616	0.372909319	7.32103	134.49806	Koror	5	Ngermeuangel	Ko6-1	H_alata	22	Hungerfordia	alata	NA
0.305531144	0.353063221	7.30829	134.48244	Koror	5	Ulebsechel	Ub6-1	H_alata	16	Hungerfordia	alata	NA
0.299160876	0.348512054	7.31006	134.4732	Koror	6	Ulebsechel	Ub7-1	H_alata	26	Hungerfordia	alata	NA
0.30394636	0.353579063	7.31437	134.47593	Koror	5	Ulebsechel	Ub7-2	H_alata	21	Hungerfordia	alata	NA
0.307605458	0.360492052	7.32811	134.46954	Koror	5	Ulebsechel	Ub7-3	H_alata	1	Hungerfordia	alata	NA
0.313002325	0.360438771	7.31306	134.48821	Koror	7	Ulebsechel	Ub7-4	H_alata	24	Hungerfordia	alata	NA
0.307672548	0.35776498	7.31857	134.47739	Koror	6	Ulebsechel	Ub8-1	H_alata	55	Hungerfordia	alata	NA
0.230670338	0.165805684	6.91925	134.13935	Angaur	1	Angaur	Ag3-1	H_angaurensis	57	Hungerfordia	angaurensis	NA
0.368038324	0.417749135	7.35971	134.52181	Airai	4	Ngeream	BA3-1	H_aspera	6	Hungerfordia	aspera	NA
0.367074075	0.412714265	7.34274	134.53347	Airai	8	NgereamIsland	BA4-1	H_aspera	21	Hungerfordia	aspera	NA
0.365266072	0.415555779	7.36006	134.51796	Airai	3	BA4-4	BA4-4	H_aspera	3	Hungerfordia	aspera	NA
0.368423644	0.410539676	7.32942	134.54417	Airai	10	NgereamIsland	BA5-2	H_aspera	4	Hungerfordia	aspera	NA
0.367088648	0.415097017	7.35224	134.52646	Airai	7	Ngeream	BA6-3	H_aspera	20	Hungerfordia	aspera	NA
0.367194187	0.414013479	7.34755	134.53012	Airai	6	Ngeream	BA6-4	H_aspera	5	Hungerfordia	aspera	NA
0.369824516	0.420353783	7.36425	134.52042	Airai	3	BA7-3	BA7-3	H_aspera	3	Hungerfordia	aspera	NA
0.378612952	0.421936544	7.34085	134.54883	Airai	4	Chasechosou 	BA8-1	H_aspera	2	Hungerfordia	aspera	NA
0.36950922	0.412823965	7.33496	134.54182	Airai	6	NgereamIsland	BA8-3	H_aspera	6	Hungerfordia	aspera	NA
0.362732443	0.40605914	7.33065	134.53655	Airai	8	NgereamIsland	BA8-4	H_aspera	3	Hungerfordia	aspera	NA
0.368423644	0.410539676	7.32942	134.54417	Airai	10	NgereamIsland	BA5-2	H_aurea	5	Hungerfordia	aurea	NA
0.345545501	0.397289568	7.35159	134.49937	Koror	3	Sngall	Ko2-1	H_aurea	17	Hungerfordia	aurea	NA
0.334175473	0.380142948	7.32207	134.5078	Koror	10	Ngermeuangel	Ko2-2	H_aurea	34	Hungerfordia	aurea	NA
0.346132191	0.397175334	7.34936	134.50199	Koror	5	Sngall	Ko5-1	H_aurea	36	Hungerfordia	aurea	NA
0.343905948	0.393380517	7.34185	134.50518	Koror	2	Sngall	Ko5-3	H_aurea	6	Hungerfordia	aurea	NA
0.326805117	0.372317462	7.31549	134.50341	Koror	4	Ngermeuangel	Ko5-5	H_aurea	25	Hungerfordia	aurea	NA
0.324212361	0.372379555	7.32334	134.49456	Koror	4	Ngeteklou	Ko5-6	H_aurea	15	Hungerfordia	aurea	NA
0.325080013	0.375034573	7.33038	134.49025	Koror	3	Ngedesakr	Ko8-1	H_aurea	48	Hungerfordia	aurea	NA
0.318705546	0.368453423	7.32515	134.48625	Koror	2	Ngeteklou	Ko8-2	H_aurea	20	Hungerfordia	aurea	NA
0.313002325	0.360438771	7.31306	134.48821	Koror	7	Ulebsechel	Ub7-4	H_aurea	1	Hungerfordia	aurea	NA
0.307672548	0.35776498	7.31857	134.47739	Koror	6	Ulebsechel	Ub8-1	H_aurea	8	Hungerfordia	aurea	NA
0.368423644	0.410539676	7.32942	134.54417	Airai	10	NgereamIsland	BA5-2	H_basodonta	23	Hungerfordia	basodonta	NA
0.334175473	0.380142948	7.32207	134.5078	Koror	10	Ngermeuangel	Ko2-2	H_basodonta	26	Hungerfordia	basodonta	NA
0.346132191	0.397175334	7.34936	134.50199	Koror	5	Sngall	Ko5-1	H_basodonta	2	Hungerfordia	basodonta	NA
0.341328902	0.390312451	7.3382	134.50476	Koror	3	Ngermeuangel	Ko5-2	H_basodonta	3	Hungerfordia	basodonta	NA
0.32565616	0.372909319	7.32103	134.49806	Koror	5	Ngermeuangel	Ko6-1	H_basodonta	2	Hungerfordia	basodonta	NA
0.148805657	0.180750025	7.17074	134.37779	Southern	5	Mecherchar	Mc6-3	H_brachyptera	3	Hungerfordia	brachyptera	NA
0.016179308	0.107042515	7.1453	134.2365	Southern	1	BelualAKelat	Gm7-1	H_chilorhytis	29	Hungerfordia	chilorhytis	NA
0.048687355	0.131991411	7.17147	134.25906	Southern	3	Ngerukeuid	JCM3501	H_chilorhytis	7	Hungerfordia	chilorhytis	NA
0.05505784	0.138820855	7.17827	134.25987	Southern	5	Ngerukeuid	JCM3502	H_chilorhytis	7	Hungerfordia	chilorhytis	NA
0.058348063	0.13731767	7.17593	134.26984	Southern	2	island16	JCM3507	H_chilorhytis	1	Hungerfordia	chilorhytis	NA
0.048741656	0.131962308	7.17143333	134.259233	Southern	4	Ngerukeuid	RJR8_19	H_chilorhytis	13	Hungerfordia	chilorhytis	NA
0.055068486	0.13881893	7.17826667	134.2599	Southern	9	Ngerukeuid	RJR9_19	H_chilorhytis	2	Hungerfordia	chilorhytis	NA
0.102832388	0.012066897	7.0277	134.2514	Southern	4	Peleliu	Pe2-2	H_crenata	1	Hungerfordia	crenata	NA
0.113785808	0.026832816	7.0156	134.2414	Southern	3	Peleliu	Pe2-3	H_crenata	7	Hungerfordia	crenata	NA
0.111307592	0.042361893	7.0359	134.2956	Southern	2	Ngekull	Pe5-3	H_crenata	25	Hungerfordia	crenata	NA
0.196682507	0.254825514	7.25942	134.3823	Ngeruktabel	9	Ongael	Gk1-2	H_elegantissima	29	Hungerfordia	elegantissima	NA
0.224427708	0.2766459	7.26534	134.41332	Ngeruktabel	10	Ngeruktabel	Gk2-2	H_elegantissima	17	Hungerfordia	elegantissima	NA
0.186721142	0.245533034	7.25318	134.37452	Ngeruktabel	7	Gk4-3	Gk4-3	H_elegantissima	46	Hungerfordia	elegantissima	NA
0.246015922	0.297428751	7.27874	134.43025	Ngeruktabel	7	Ngeruktabel	Gk4-4	H_elegantissima	3	Hungerfordia	elegantissima	NA
0.249371158	0.300188475	7.27943	134.43394	Ngeruktabel	7	Ngeruktabel	Gk4-5	H_elegantissima	8	Hungerfordia	elegantissima	NA
0.195170542	0.247799444	7.24502	134.39199	Ngeruktabel	6	Ngeruktabel	Gk4-6	H_elegantissima	4	Hungerfordia	elegantissima	NA
0.195848336	0.246928853	7.24179	134.39515	Ngeruktabel	6	Ngeruktabel	Gk5-2	H_elegantissima	2	Hungerfordia	elegantissima	NA
0.238585206	0.293068379	7.28197	134.41816	Ngeruktabel	5	Ngermedai	Gk7-1	H_elegantissima	18	Hungerfordia	elegantissima	NA
0.231724405	0.285183061	7.27404	134.41578	Ngeruktabel	5	Ngeruktabel	Gk7-2	H_elegantissima	2	Hungerfordia	elegantissima	NA
0.166382093	0.221465652	7.22917	134.3679	Ngeruktabel	5	Ngeruktabel	Gk7-3	H_elegantissima	5	Hungerfordia	elegantissima	NA
0.250412613	0.299307622	7.27458	134.43879	Ngeruktabel	7	Ngeruktabel	Gk7-6	H_elegantissima	5	Hungerfordia	elegantissima	NA
0.166036144	0.214710542	7.21523	134.37691	Ngeruktabel	4	Ongetkatel	Gk8-3	H_elegantissima	70	Hungerfordia	elegantissima	NA
0.234980179	0.286258185	7.27042	134.42271	Ngeruktabel	6	Ngeruktabel	Gk8-4	H_elegantissima	17	Hungerfordia	elegantissima	NA
0.198759395	0.247714975	7.23871	134.40077	Ngeruktabel	4	Ngeruktabel	Gk8-6	H_elegantissima	7	Hungerfordia	elegantissima	NA
0.055068486	0.13881893	7.17826667	134.2599	Southern	9	Ngerukeuid	RJR9_19	H_elegantissima	2	Hungerfordia	elegantissima	NA
0.196682507	0.254825514	7.25942	134.3823	Ngeruktabel	9	Ongael	Gk1-2	H_eurystoma	15	Hungerfordia	eurystoma	NA
0.224427708	0.2766459	7.26534	134.41332	Ngeruktabel	10	Ngeruktabel	Gk2-2	H_eurystoma	1	Hungerfordia	eurystoma	NA
0.210727359	0.269975217	7.27319	134.38876	Ngeruktabel	7	Gk4-2	Gk4-2	H_eurystoma	16	Hungerfordia	eurystoma	NA
0.186721142	0.245533034	7.25318	134.37452	Ngeruktabel	7	Gk4-3	Gk4-3	H_eurystoma	41	Hungerfordia	eurystoma	NA
0.195170542	0.247799444	7.24502	134.39199	Ngeruktabel	6	Ngeruktabel	Gk4-6	H_eurystoma	14	Hungerfordia	eurystoma	NA
0.166144809	0.233362181	7.2548	134.34366	Ngeruktabel	6	Ngeruktabel	Gk5-1	H_eurystoma	16	Hungerfordia	eurystoma	NA
0.195848336	0.246928853	7.24179	134.39515	Ngeruktabel	6	Ngeruktabel	Gk5-2	H_eurystoma	5	Hungerfordia	eurystoma	NA
0.168122009	0.238772875	7.26373	134.33573	Ngeruktabel	4	Ngebedangel	Gk6-3	H_eurystoma	22	Hungerfordia	eurystoma	NA
0.271086505	0.323903271	7.30113	134.44449	Ngeruktabel	5	Ngeruktabel	Gk7-5	H_eurystoma	1	Hungerfordia	eurystoma	NA
0.278294834	0.331780392	7.30852	134.44772	Ngeruktabel	8	Ngeruktabel	Gk7-8	H_eurystoma	1	Hungerfordia	eurystoma	NA
0.166036144	0.214710542	7.21523	134.37691	Ngeruktabel	4	Ongetkatel	Gk8-3	H_eurystoma	25	Hungerfordia	eurystoma	NA
0	0.091489945	7.1292	134.2349	Southern	3	Arimasuku	Gm5-1	H_eurystoma	39	Hungerfordia	eurystoma	NA
0.150140384	0.194537453	7.19568	134.36952	Southern	7	Euidelchol	Ik3-1	H_eurystoma	12	Hungerfordia	eurystoma	NA
0.139205228	0.183857813	7.18895	134.36063	Southern	5	Euidelchol	Ik6-1	H_eurystoma	3	Hungerfordia	eurystoma	NA
0.158028176	0.20116559	7.1983	134.37702	Southern	2	Ngermeaus	Ik8-1	H_eurystoma	25	Hungerfordia	eurystoma	NA
0.145408515	0.190364766	7.19364	134.36525	Southern	6	Euidelchol	Ik8-2	H_eurystoma	1	Hungerfordia	eurystoma	NA
0.118579102	0.157078399	7.16505	134.34793	Southern	5	Mecherchar	Mc6-5	H_eurystoma	5	Hungerfordia	eurystoma	NA
0.123663946	0.154710095	7.15566	134.3557	Southern	5	Mecherchar	Mc8-4	H_eurystoma	29	Hungerfordia	eurystoma	NA
0.159017361	0.206856745	7.20861	134.37267	Southern	2	Ngeanges	Nc6-1	H_eurystoma	32	Hungerfordia	eurystoma	NA
0.091489945	0	7.0396	134.2534	Southern	5	Peleliu	Pe2-1	H_eurystoma	12	Hungerfordia	eurystoma	NA
0.396388765	0.438980705	7.34913	134.56468	Airai	5	Pkulaklim	BA5-4	H_expansilabris	1	Hungerfordia	expansilabris	NA
0.399905151	0.441935907	7.34893	134.56903	Airai	5	Pkulaklim	BA5-5	H_expansilabris	65	Hungerfordia	expansilabris	NA
0.418808104	0.459482709	7.35471	134.58781	Airai	5	BA6-1	BA6-1	H_expansilabris	13	Hungerfordia	expansilabris	NA
0.399138806	0.44046476	7.34539	134.57042	Airai	3	Pkulaklim	BA6-2	H_expansilabris	21	Hungerfordia	expansilabris	NA
0.36950922	0.412823965	7.33496	134.54182	Airai	6	NgereamIsland	BA8-3	H_expansilabris	6	Hungerfordia	expansilabris	NA
0.362732443	0.40605914	7.33065	134.53655	Airai	8	NgereamIsland	BA8-4	H_expansilabris	3	Hungerfordia	expansilabris	NA
0.278534379	0.332769038	7.31106	134.44587	Ngeruktabel	8	Ngeruktabel	Gk6-2	H_fragilipennis	56	Hungerfordia	fragilipennis	NA
0.250412613	0.299307622	7.27458	134.43879	Ngeruktabel	7	Ngeruktabel	Gk7-6	H_fragilipennis	11	Hungerfordia	fragilipennis	NA
0.25060832	0.297158234	7.26788	134.44364	Ngeruktabel	6	Ngeruktabel	Gk7-7	H_fragilipennis	2	Hungerfordia	fragilipennis	NA
0.278294834	0.331780392	7.30852	134.44772	Ngeruktabel	8	Ngeruktabel	Gk7-8	H_fragilipennis	8	Hungerfordia	fragilipennis	NA
0.3087207	0.364594984	7.33916	134.46123	Koror	1	Ngermalk	Nm5-1	H_globosa	2	Hungerfordia	globosa	NA
0.056621992	0.057585588	7.0919	134.2775	Southern	6	Carp	Cp1-1	H_inflatula	42	Hungerfordia	inflatula	NA
0.06257939	0.058669668	7.0899	134.2836	Southern	5	Carp	Cp6-1	H_inflatula	11	Hungerfordia	inflatula	NA
0.175580333	0.226946811	7.22786	134.38014	Ngeruktabel	6	Ngeruktabel	Gk3-1	H_inflatula	20	Hungerfordia	inflatula	NA
0.166144809	0.233362181	7.2548	134.34366	Ngeruktabel	6	Ngeruktabel	Gk5-1	H_inflatula	16	Hungerfordia	inflatula	NA
0.168122009	0.238772875	7.26373	134.33573	Ngeruktabel	4	Ngebedangel	Gk6-3	H_inflatula	18	Hungerfordia	inflatula	NA
0.25060832	0.297158234	7.26788	134.44364	Ngeruktabel	6	Ngeruktabel	Gk7-7	H_inflatula	1	Hungerfordia	inflatula	NA
0.251806677	0.312712987	7.31045	134.4097	Ngeruktabel	1	Tlutkaraguis	Gk8-1	H_inflatula	1	Hungerfordia	inflatula	NA
0.166036144	0.214710542	7.21523	134.37691	Ngeruktabel	4	Ongetkatel	Gk8-3	H_inflatula	49	Hungerfordia	inflatula	NA
0.028012854	0.06519977	7.1046	134.2483	Southern	4	Bailechesengei	Gm6-1	H_inflatula	7	Hungerfordia	inflatula	NA
0.02830159	0.068904644	7.1085	134.2542	Southern	4	Bailechesengei	Gm6-3	H_inflatula	14	Hungerfordia	inflatula	NA
0.150140384	0.194537453	7.19568	134.36952	Southern	7	Euidelchol	Ik3-1	H_inflatula	45	Hungerfordia	inflatula	NA
0.139205228	0.183857813	7.18895	134.36063	Southern	5	Euidelchol	Ik6-1	H_inflatula	22	Hungerfordia	inflatula	NA
0.145408515	0.190364766	7.19364	134.36525	Southern	6	Euidelchol	Ik8-2	H_inflatula	21	Hungerfordia	inflatula	NA
0.060962966	0.137327132	7.17524	134.27486	Southern	4	Bkulomekerall	JCM3508	H_inflatula	4	Hungerfordia	inflatula	NA
0.128058587	0.158630046	7.1572	134.35986	Southern	5	Mecherchar	Mc1-1	H_inflatula	44	Hungerfordia	inflatula	NA
0.143913768	0.172912476	7.16266	134.37487	Southern	8	Mecherchar	Mc2-1	H_inflatula	52	Hungerfordia	inflatula	NA
0.110701123	0.151258886	7.16351	134.34015	Southern	4	Mc3-1	Mc3-1	H_inflatula	86	Hungerfordia	inflatula	NA
0.128627439	0.156743511	7.15335	134.36124	Southern	6	Mecherchar	Mc4-1	H_inflatula	76	Hungerfordia	inflatula	NA
0.143949809	0.16333662	7.14527	134.37795	Southern	5	Mecherchar	Mc5-1	H_inflatula	3	Hungerfordia	inflatula	NA
0.130424234	0.171528	7.17682	134.35632	Southern	4	Mecherchar	Mc5-3	H_inflatula	28	Hungerfordia	inflatula	NA
0.111008784	0.141143863	7.1475	134.34439	Southern	6	Mecherchar	Mc6-1	H_inflatula	6	Hungerfordia	inflatula	NA
0.135442736	0.159454867	7.14965	134.36879	Southern	5	Mecherchar	Mc6-2	H_inflatula	26	Hungerfordia	inflatula	NA
0.148805657	0.180750025	7.17074	134.37779	Southern	5	Mecherchar	Mc6-3	H_inflatula	28	Hungerfordia	inflatula	NA
0.134222094	0.163327244	7.15789	134.36602	Southern	6	Mecherchar	Mc6-4	H_inflatula	5	Hungerfordia	inflatula	NA
0.118579102	0.157078399	7.16505	134.34793	Southern	5	Mecherchar	Mc6-5	H_inflatula	31	Hungerfordia	inflatula	NA
0.14722935	0.184700979	7.1804	134.37294	Southern	1	Mc7-1	Mc7-1	H_inflatula	7	Hungerfordia	inflatula	NA
0.116870642	0.158306383	7.16882	134.34485	Southern	4	Mecherchar	Mc8-1	H_inflatula	12	Hungerfordia	inflatula	NA
0.121967688	0.162306922	7.1702	134.34977	Southern	3	Mecherchar	Mc8-2	H_inflatula	17	Hungerfordia	inflatula	NA
0.1187895	0.155335377	7.16197	134.34908	Southern	2	Mecherchar	Mc8-3	H_inflatula	15	Hungerfordia	inflatula	NA
0.123663946	0.154710095	7.15566	134.3557	Southern	5	Mecherchar	Mc8-4	H_inflatula	29	Hungerfordia	inflatula	NA
0.148960923	0.178183862	7.16566	134.37933	Southern	4	Mecherchar	Mc8-5	H_inflatula	43	Hungerfordia	inflatula	NA
0.159017361	0.206856745	7.20861	134.37267	Southern	2	Ngeanges	Nc6-1	H_inflatula	27	Hungerfordia	inflatula	NA
0.086487142	0.126699605	7.14777	134.31937	Southern	5	Babelomekang	Om5-1	H_inflatula	35	Hungerfordia	inflatula	NA
0.085355628	0.126070335	7.14773	134.31822	Southern	3	Babelomekang	Om6-1	H_inflatula	2	Hungerfordia	inflatula	NA
0.08530178	0.122578773	7.14311	134.31906	Southern	5	Babelomekang	Om7-1	H_inflatula	23	Hungerfordia	inflatula	NA
0.071531367	0.110017874	7.13618	134.30609	Southern	4	Ioulomekang	Om7-2	H_inflatula	9	Hungerfordia	inflatula	NA
0.084978356	0.129930893	7.15323	134.31641	Southern	4	Ngesomel	Om8-1	H_inflatula	80	Hungerfordia	inflatula	NA
0.113954379	0.025819187	7.0156	134.24388	Southern	5	Peleliu	Pe1-1	H_inflatula	2	Hungerfordia	inflatula	NA
0.091489945	0	7.0396	134.2534	Southern	5	Peleliu	Pe2-1	H_inflatula	13	Hungerfordia	inflatula	NA
0.102832388	0.012066897	7.0277	134.2514	Southern	4	Peleliu	Pe2-2	H_inflatula	13	Hungerfordia	inflatula	NA
0.113785808	0.026832816	7.0156	134.2414	Southern	3	Peleliu	Pe2-3	H_inflatula	72	Hungerfordia	inflatula	NA
0.123678818	0.035305524	7.0058	134.2432	Southern	3	Peleliu	Pe2-5	H_inflatula	1	Hungerfordia	inflatula	NA
0.0611993	0.137526225	7.17541667	134.275017	Southern	5	Bkulomekerall	RJR15_19	H_inflatula	1	Hungerfordia	inflatula	NA
0.055068486	0.13881893	7.17826667	134.2599	Southern	9	Ngerukeuid	RJR9_19	H_inflatula	1	Hungerfordia	inflatula	NA
0.163462107	0.247743199	7.28566	134.28223	Southern	4	UlongWest	Uo3-1	H_inflatula	19	Hungerfordia	inflatula	NA
0.163614925	0.242780056	7.27666	134.30579	Southern	2	UlongEast	Uo7-1	H_inflatula	8	Hungerfordia	inflatula	NA
0.157449253	0.239131067	7.27535	134.29347	Southern	4	Uo7-2	Uo7-2	H_inflatula	23	Hungerfordia	inflatula	NA
0.159898248	0.24115427	7.27696	134.29601	Southern	4	UlongEast	Uo8-2	H_inflatula	2	Hungerfordia	inflatula	NA
0.162553316	0.245448949	7.28243	134.28916	Southern	2	UlongWest	Uo8-3	H_inflatula	24	Hungerfordia	inflatula	NA
0.164539077	0.2442965	7.27866	134.30371	Southern	5	UlongEast	Uo8-4	H_inflatula	47	Hungerfordia	inflatula	NA
0.163714937	0.247249292	7.28466	134.28623	Southern	5	UlongWest	Uo8-5	H_inflatula	17	Hungerfordia	inflatula	NA
0.42047718	0.46371359	7.36737	134.58142	Airai	4	BA7-1	BA7-1	H_irregularis	16	Hungerfordia	irregularis	NA
0.367074075	0.412714265	7.34274	134.53347	Airai	8	NgereamIsland	BA4-1	H_lamellata	35	Hungerfordia	lamellata	NA
0.368423644	0.410539676	7.32942	134.54417	Airai	10	NgereamIsland	BA5-2	H_lamellata	24	Hungerfordia	lamellata	NA
0.367088648	0.415097017	7.35224	134.52646	Airai	7	Ngeream	BA6-3	H_lamellata	14	Hungerfordia	lamellata	NA
0.367194187	0.414013479	7.34755	134.53012	Airai	6	Ngeream	BA6-4	H_lamellata	14	Hungerfordia	lamellata	NA
0.36950922	0.412823965	7.33496	134.54182	Airai	6	NgereamIsland	BA8-3	H_lamellata	3	Hungerfordia	lamellata	NA
0.362732443	0.40605914	7.33065	134.53655	Airai	8	NgereamIsland	BA8-4	H_lamellata	6	Hungerfordia	lamellata	NA
0.364974395	0.409307626	7.33612	134.53555	Airai	6	NgereamIsland	BA8-5	H_lamellata	1	Hungerfordia	lamellata	NA
0.299523579	0.357976119	7.34074	134.44695	Koror	5	Ngerchaol	Ch5-1	H_lamellata	25	Hungerfordia	lamellata	NA
0.303746732	0.36127036	7.34093	134.45269	Koror	4	Ngerchaol	Ch6-1	H_lamellata	10	Hungerfordia	lamellata	NA
0.29171064	0.352816422	7.3432	134.43314	Koror	4	Ngerchaol	Ch6-2	H_lamellata	29	Hungerfordia	lamellata	NA
0.287855906	0.349284306	7.34112	134.42971	Koror	4	Ngerchaol	Ch8-1	H_lamellata	26	Hungerfordia	lamellata	NA
0.29589063	0.355834724	7.34278	134.43968	Koror	4	Ngerchaol	Ch8-2	H_lamellata	6	Hungerfordia	lamellata	NA
0.345545501	0.397289568	7.35159	134.49937	Koror	3	Sngall	Ko2-1	H_lamellata	44	Hungerfordia	lamellata	NA
0.334175473	0.380142948	7.32207	134.5078	Koror	10	Ngermeuangel	Ko2-2	H_lamellata	139	Hungerfordia	lamellata	NA
0.340600118	0.386489553	7.32607	134.51284	Koror	3	Ngermeuangel	Ko3-1	H_lamellata	39	Hungerfordia	lamellata	NA
0.346132191	0.397175334	7.34936	134.50199	Koror	5	Sngall	Ko5-1	H_lamellata	35	Hungerfordia	lamellata	NA
0.341328902	0.390312451	7.3382	134.50476	Koror	3	Ngermeuangel	Ko5-2	H_lamellata	49	Hungerfordia	lamellata	NA
0.343905948	0.393380517	7.34185	134.50518	Koror	2	Sngall	Ko5-3	H_lamellata	3	Hungerfordia	lamellata	NA
0.326805117	0.372317462	7.31549	134.50341	Koror	4	Ngermeuangel	Ko5-5	H_lamellata	48	Hungerfordia	lamellata	NA
0.324212361	0.372379555	7.32334	134.49456	Koror	4	Ngeteklou	Ko5-6	H_lamellata	24	Hungerfordia	lamellata	NA
0.32565616	0.372909319	7.32103	134.49806	Koror	5	Ngermeuangel	Ko6-1	H_lamellata	52	Hungerfordia	lamellata	NA
0.325080013	0.375034573	7.33038	134.49025	Koror	3	Ngedesakr	Ko8-1	H_lamellata	31	Hungerfordia	lamellata	NA
0.318705546	0.368453423	7.32515	134.48625	Koror	2	Ngeteklou	Ko8-2	H_lamellata	41	Hungerfordia	lamellata	NA
0.3087207	0.364594984	7.33916	134.46123	Koror	4	Ngermalk	Nm4-1	H_lamellata	68	Hungerfordia	lamellata	NA
0.31419755	0.358906267	7.30429	134.49579	Koror	1	Ulebsechel	Ub3-1	H_lamellata	42	Hungerfordia	lamellata	NA
0.305531144	0.353063221	7.30829	134.48244	Koror	5	Ulebsechel	Ub6-1	H_lamellata	26	Hungerfordia	lamellata	NA
0.299160876	0.348512054	7.31006	134.4732	Koror	6	Ulebsechel	Ub7-1	H_lamellata	37	Hungerfordia	lamellata	NA
0.30394636	0.353579063	7.31437	134.47593	Koror	5	Ulebsechel	Ub7-2	H_lamellata	6	Hungerfordia	lamellata	NA
0.307605458	0.360492052	7.32811	134.46954	Koror	5	Ulebsechel	Ub7-3	H_lamellata	31	Hungerfordia	lamellata	NA
0.313002325	0.360438771	7.31306	134.48821	Koror	7	Ulebsechel	Ub7-4	H_lamellata	7	Hungerfordia	lamellata	NA
0.307672548	0.35776498	7.31857	134.47739	Koror	6	Ulebsechel	Ub8-1	H_lamellata	90	Hungerfordia	lamellata	NA
0.299523579	0.357976119	7.34074	134.44695	Koror	5	Ngerchaol	Ch5-1	H_longissima	9	Hungerfordia	longissima	NA
0.056621992	0.057585588	7.0919	134.2775	Southern	6	Carp	Cp1-1	H_loxodonta	20	Hungerfordia	loxodonta	NA
0.06257939	0.058669668	7.0899	134.2836	Southern	5	Carp	Cp6-1	H_loxodonta	4	Hungerfordia	loxodonta	NA
0.051163757	0.049696881	7.0879	134.2651	Southern	3	Cp6-2	Cp6-2	H_loxodonta	13	Hungerfordia	loxodonta	NA
0.175580333	0.226946811	7.22786	134.38014	Ngeruktabel	6	Ngeruktabel	Gk3-1	H_loxodonta	33	Hungerfordia	loxodonta	NA
0.278534379	0.332769038	7.31106	134.44587	Ngeruktabel	8	Ngeruktabel	Gk6-2	H_loxodonta	2	Hungerfordia	loxodonta	NA
0.278294834	0.331780392	7.30852	134.44772	Ngeruktabel	8	Ngeruktabel	Gk7-8	H_loxodonta	1	Hungerfordia	loxodonta	NA
0	0.091489945	7.1292	134.2349	Southern	3	Arimasuku	Gm5-1	H_loxodonta	10	Hungerfordia	loxodonta	NA
0.028012854	0.06519977	7.1046	134.2483	Southern	4	Bailechesengei	Gm6-1	H_loxodonta	7	Hungerfordia	loxodonta	NA
0.02830159	0.068904644	7.1085	134.2542	Southern	4	Bailechesengei	Gm6-3	H_loxodonta	3	Hungerfordia	loxodonta	NA
0.150140384	0.194537453	7.19568	134.36952	Southern	7	Euidelchol	Ik3-1	H_loxodonta	47	Hungerfordia	loxodonta	NA
0.139205228	0.183857813	7.18895	134.36063	Southern	5	Euidelchol	Ik6-1	H_loxodonta	24	Hungerfordia	loxodonta	NA
0.145408515	0.190364766	7.19364	134.36525	Southern	6	Euidelchol	Ik8-2	H_loxodonta	20	Hungerfordia	loxodonta	NA
0.048687355	0.131991411	7.17147	134.25906	Southern	3	Ngerukeuid	JCM3501	H_loxodonta	12	Hungerfordia	loxodonta	NA
0.05505784	0.138820855	7.17827	134.25987	Southern	5	Ngerukeuid	JCM3502	H_loxodonta	5	Hungerfordia	loxodonta	NA
0.061467055	0.150843226	7.1901	134.24323	Southern	2	Km7-1	Km7-1	H_loxodonta	23	Hungerfordia	loxodonta	NA
0.128058587	0.158630046	7.1572	134.35986	Southern	5	Mecherchar	Mc1-1	H_loxodonta	11	Hungerfordia	loxodonta	NA
0.143913768	0.172912476	7.16266	134.37487	Southern	8	Mecherchar	Mc2-1	H_loxodonta	5	Hungerfordia	loxodonta	NA
0.110701123	0.151258886	7.16351	134.34015	Southern	4	Mc3-1	Mc3-1	H_loxodonta	27	Hungerfordia	loxodonta	NA
0.128627439	0.156743511	7.15335	134.36124	Southern	6	Mecherchar	Mc4-1	H_loxodonta	60	Hungerfordia	loxodonta	NA
0.143949809	0.16333662	7.14527	134.37795	Southern	5	Mecherchar	Mc5-1	H_loxodonta	13	Hungerfordia	loxodonta	NA
0.139452962	0.166545797	7.15697	134.37156	Southern	3	Mecherchar	Mc5-2	H_loxodonta	3	Hungerfordia	loxodonta	NA
0.130424234	0.171528	7.17682	134.35632	Southern	4	Mecherchar	Mc5-3	H_loxodonta	2	Hungerfordia	loxodonta	NA
0.111008784	0.141143863	7.1475	134.34439	Southern	6	Mecherchar	Mc6-1	H_loxodonta	14	Hungerfordia	loxodonta	NA
0.135442736	0.159454867	7.14965	134.36879	Southern	5	Mecherchar	Mc6-2	H_loxodonta	8	Hungerfordia	loxodonta	NA
0.134222094	0.163327244	7.15789	134.36602	Southern	6	Mecherchar	Mc6-4	H_loxodonta	3	Hungerfordia	loxodonta	NA
0.118579102	0.157078399	7.16505	134.34793	Southern	5	Mecherchar	Mc6-5	H_loxodonta	5	Hungerfordia	loxodonta	NA
0.116870642	0.158306383	7.16882	134.34485	Southern	4	Mecherchar	Mc8-1	H_loxodonta	7	Hungerfordia	loxodonta	NA
0.123663946	0.154710095	7.15566	134.3557	Southern	5	Mecherchar	Mc8-4	H_loxodonta	5	Hungerfordia	loxodonta	NA
0.086487142	0.126699605	7.14777	134.31937	Southern	5	Babelomekang	Om5-1	H_loxodonta	28	Hungerfordia	loxodonta	NA
0.085355628	0.126070335	7.14773	134.31822	Southern	3	Babelomekang	Om6-1	H_loxodonta	3	Hungerfordia	loxodonta	NA
0.08530178	0.122578773	7.14311	134.31906	Southern	5	Babelomekang	Om7-1	H_loxodonta	17	Hungerfordia	loxodonta	NA
0.071531367	0.110017874	7.13618	134.30609	Southern	4	Ioulomekang	Om7-2	H_loxodonta	21	Hungerfordia	loxodonta	NA
0.084978356	0.129930893	7.15323	134.31641	Southern	4	Ngesomel	Om8-1	H_loxodonta	41	Hungerfordia	loxodonta	NA
0.113954379	0.025819187	7.0156	134.24388	Southern	5	Peleliu	Pe1-1	H_loxodonta	3	Hungerfordia	loxodonta	NA
0.091489945	0	7.0396	134.2534	Southern	5	Peleliu	Pe2-1	H_loxodonta	23	Hungerfordia	loxodonta	NA
0.058179875	0.137175825	7.1758	134.269733	Southern	3	island16	RJR13_19	H_loxodonta	1	Hungerfordia	loxodonta	NA
0.0611993	0.137526225	7.17541667	134.275017	Southern	5	Bkulomekerall	RJR15_19	H_loxodonta	15	Hungerfordia	loxodonta	NA
0.048741656	0.131962308	7.17143333	134.259233	Southern	4	Ngerukeuid	RJR8_19	H_loxodonta	24	Hungerfordia	loxodonta	NA
0.055068486	0.13881893	7.17826667	134.2599	Southern	9	Ngerukeuid	RJR9_19	H_loxodonta	13	Hungerfordia	loxodonta	NA
0.163462107	0.247743199	7.28566	134.28223	Southern	4	UlongWest	Uo3-1	H_loxodonta	16	Hungerfordia	loxodonta	NA
0.157449253	0.239131067	7.27535	134.29347	Southern	4	Uo7-2	Uo7-2	H_loxodonta	21	Hungerfordia	loxodonta	NA
0.159898248	0.24115427	7.27696	134.29601	Southern	4	UlongEast	Uo8-2	H_loxodonta	24	Hungerfordia	loxodonta	NA
0.164539077	0.2442965	7.27866	134.30371	Southern	5	UlongEast	Uo8-4	H_loxodonta	16	Hungerfordia	loxodonta	NA
0.163714937	0.247249292	7.28466	134.28623	Southern	5	UlongWest	Uo8-5	H_loxodonta	20	Hungerfordia	loxodonta	NA
0.367074075	0.412714265	7.34274	134.53347	Airai	8	NgereamIsland	BA4-1	H_microbasodonta	2	Hungerfordia	microbasodonta	NA
0.368423644	0.410539676	7.32942	134.54417	Airai	10	NgereamIsland	BA5-2	H_microbasodonta	2	Hungerfordia	microbasodonta	NA
0.367088648	0.415097017	7.35224	134.52646	Airai	7	Ngeream	BA6-3	H_microbasodonta	5	Hungerfordia	microbasodonta	NA
0.362732443	0.40605914	7.33065	134.53655	Airai	8	NgereamIsland	BA8-4	H_microbasodonta	7	Hungerfordia	microbasodonta	NA
0.364974395	0.409307626	7.33612	134.53555	Airai	6	NgereamIsland	BA8-5	H_microbasodonta	5	Hungerfordia	microbasodonta	NA
0.299523579	0.357976119	7.34074	134.44695	Koror	5	Ngerchaol	Ch5-1	H_microbasodonta	17	Hungerfordia	microbasodonta	NA
0.276582736	0.337881636	7.3316	134.4234	Ngeruktabel	6	Ngeruktabel	Gk5-5	H_microbasodonta	3	Hungerfordia	microbasodonta	NA
0.334175473	0.380142948	7.32207	134.5078	Koror	10	Ngermeuangel	Ko2-2	H_microbasodonta	23	Hungerfordia	microbasodonta	NA
0.326805117	0.372317462	7.31549	134.50341	Koror	4	Ngermeuangel	Ko5-5	H_microbasodonta	3	Hungerfordia	microbasodonta	NA
0.32565616	0.372909319	7.32103	134.49806	Koror	5	Ngermeuangel	Ko6-1	H_microbasodonta	1	Hungerfordia	microbasodonta	NA
0.325080013	0.375034573	7.33038	134.49025	Koror	3	Ngedesakr	Ko8-1	H_microbasodonta	8	Hungerfordia	microbasodonta	NA
0.307605458	0.360492052	7.32811	134.46954	Koror	5	Ulebsechel	Ub7-3	H_microbasodonta	6	Hungerfordia	microbasodonta	NA
0.313002325	0.360438771	7.31306	134.48821	Koror	7	Ulebsechel	Ub7-4	H_microbasodonta	5	Hungerfordia	microbasodonta	NA
0.368038324	0.417749135	7.35971	134.52181	Airai	4	Ngeream	BA3-1	H_ngereamensis	10	Hungerfordia	ngereamensis	NA
0.369002625	0.415327068	7.34678	134.53293	Airai	4	Ngeream	BA4-2	H_ngereamensis	27	Hungerfordia	ngereamensis	NA
0.163614925	0.242780056	7.27666	134.30579	Southern	2	UlongEast	Uo7-1	H_nodulosa	6	Hungerfordia	nodulosa	NA
0.159898248	0.24115427	7.27696	134.29601	Southern	4	UlongEast	Uo8-2	H_nodulosa	11	Hungerfordia	nodulosa	NA
0.164539077	0.2442965	7.27866	134.30371	Southern	5	UlongEast	Uo8-4	H_nodulosa	22	Hungerfordia	nodulosa	NA
0.196682507	0.254825514	7.25942	134.3823	Ngeruktabel	9	Ongael	Gk1-2	H_nudicollum	17	Hungerfordia	nudicollum	NA
0.224427708	0.2766459	7.26534	134.41332	Ngeruktabel	10	Ngeruktabel	Gk2-2	H_nudicollum	1	Hungerfordia	nudicollum	NA
0.210727359	0.269975217	7.27319	134.38876	Ngeruktabel	7	Gk4-2	Gk4-2	H_nudicollum	30	Hungerfordia	nudicollum	NA
0.246015922	0.297428751	7.27874	134.43025	Ngeruktabel	7	Ngeruktabel	Gk4-4	H_nudicollum	4	Hungerfordia	nudicollum	NA
0.238585206	0.293068379	7.28197	134.41816	Ngeruktabel	5	Ngermedai	Gk7-1	H_nudicollum	4	Hungerfordia	nudicollum	NA
0.231724405	0.285183061	7.27404	134.41578	Ngeruktabel	5	Ngeruktabel	Gk7-2	H_nudicollum	6	Hungerfordia	nudicollum	NA
0.234980179	0.286258185	7.27042	134.42271	Ngeruktabel	6	Ngeruktabel	Gk8-4	H_nudicollum	2	Hungerfordia	nudicollum	NA
0.216249376	0.266074724	7.25318	134.41208	Ngeruktabel	5	Ngeruktabel	Gk8-5	H_nudicollum	2	Hungerfordia	nudicollum	NA
0.367074075	0.412714265	7.34274	134.53347	Airai	8	NgereamIsland	BA4-1	H_pelewensis	33	Hungerfordia	pelewensis	NA
0.368423644	0.410539676	7.32942	134.54417	Airai	10	NgereamIsland	BA5-2	H_pelewensis	7	Hungerfordia	pelewensis	NA
0.367088648	0.415097017	7.35224	134.52646	Airai	7	Ngeream	BA6-3	H_pelewensis	5	Hungerfordia	pelewensis	NA
0.367194187	0.414013479	7.34755	134.53012	Airai	6	Ngeream	BA6-4	H_pelewensis	2	Hungerfordia	pelewensis	NA
0.362732443	0.40605914	7.33065	134.53655	Airai	8	NgereamIsland	BA8-4	H_pelewensis	1	Hungerfordia	pelewensis	NA
0.364974395	0.409307626	7.33612	134.53555	Airai	6	NgereamIsland	BA8-5	H_pelewensis	11	Hungerfordia	pelewensis	NA
0.29171064	0.352816422	7.3432	134.43314	Koror	4	Ngerchaol	Ch6-2	H_pelewensis	3	Hungerfordia	pelewensis	NA
0.287855906	0.349284306	7.34112	134.42971	Koror	4	Ngerchaol	Ch8-1	H_pelewensis	13	Hungerfordia	pelewensis	NA
0.196682507	0.254825514	7.25942	134.3823	Ngeruktabel	9	Ongael	Gk1-2	H_pelewensis	17	Hungerfordia	pelewensis	NA
0.224427708	0.2766459	7.26534	134.41332	Ngeruktabel	10	Ngeruktabel	Gk2-2	H_pelewensis	8	Hungerfordia	pelewensis	NA
0.210727359	0.269975217	7.27319	134.38876	Ngeruktabel	7	Gk4-2	Gk4-2	H_pelewensis	17	Hungerfordia	pelewensis	NA
0.246015922	0.297428751	7.27874	134.43025	Ngeruktabel	7	Ngeruktabel	Gk4-4	H_pelewensis	1	Hungerfordia	pelewensis	NA
0.249371158	0.300188475	7.27943	134.43394	Ngeruktabel	7	Ngeruktabel	Gk4-5	H_pelewensis	6	Hungerfordia	pelewensis	NA
0.276582736	0.337881636	7.3316	134.4234	Ngeruktabel	6	Ngeruktabel	Gk5-5	H_pelewensis	148	Hungerfordia	pelewensis	NA
0.278534379	0.332769038	7.31106	134.44587	Ngeruktabel	8	Ngeruktabel	Gk6-2	H_pelewensis	12	Hungerfordia	pelewensis	NA
0.238585206	0.293068379	7.28197	134.41816	Ngeruktabel	5	Ngermedai	Gk7-1	H_pelewensis	24	Hungerfordia	pelewensis	NA
0.24092746	0.297336303	7.28913	134.41509	Ngeruktabel	5	UetEraRebotel	Gk7-4	H_pelewensis	53	Hungerfordia	pelewensis	NA
0.250412613	0.299307622	7.27458	134.43879	Ngeruktabel	7	Ngeruktabel	Gk7-6	H_pelewensis	1	Hungerfordia	pelewensis	NA
0.242523246	0.300601239	7.29505	134.41185	Ngeruktabel	4	LukelaBeab	Gk8-2	H_pelewensis	8	Hungerfordia	pelewensis	NA
0.334175473	0.380142948	7.32207	134.5078	Koror	10	Ngermeuangel	Ko2-2	H_pelewensis	67	Hungerfordia	pelewensis	NA
0.324212361	0.372379555	7.32334	134.49456	Koror	4	Ngeteklou	Ko5-6	H_pelewensis	12	Hungerfordia	pelewensis	NA
0.3087207	0.364594984	7.33916	134.46123	Koror	4	Ngermalk	Nm4-1	H_pelewensis	3	Hungerfordia	pelewensis	NA
0.305531144	0.353063221	7.30829	134.48244	Koror	5	Ulebsechel	Ub6-1	H_pelewensis	5	Hungerfordia	pelewensis	NA
0.299160876	0.348512054	7.31006	134.4732	Koror	6	Ulebsechel	Ub7-1	H_pelewensis	3	Hungerfordia	pelewensis	NA
0.30394636	0.353579063	7.31437	134.47593	Koror	5	Ulebsechel	Ub7-2	H_pelewensis	15	Hungerfordia	pelewensis	NA
0.307605458	0.360492052	7.32811	134.46954	Koror	5	Ulebsechel	Ub7-3	H_pelewensis	2	Hungerfordia	pelewensis	NA
0.313002325	0.360438771	7.31306	134.48821	Koror	7	Ulebsechel	Ub7-4	H_pelewensis	4	Hungerfordia	pelewensis	NA
0.307672548	0.35776498	7.31857	134.47739	Koror	6	Ulebsechel	Ub8-1	H_pelewensis	36	Hungerfordia	pelewensis	NA
0.367074075	0.412714265	7.34274	134.53347	Airai	8	NgereamIsland	BA4-1	H_polymorpha	2	Hungerfordia	polymorpha	NA
0.396388765	0.438980705	7.34913	134.56468	Airai	5	Pkulaklim	BA5-4	H_polymorpha	2	Hungerfordia	polymorpha	NA
0.399905151	0.441935907	7.34893	134.56903	Airai	5	Pkulaklim	BA5-5	H_polymorpha	2	Hungerfordia	polymorpha	NA
0.418808104	0.459482709	7.35471	134.58781	Airai	5	BA6-1	BA6-1	H_polymorpha	1	Hungerfordia	polymorpha	NA
0.299523579	0.357976119	7.34074	134.44695	Koror	5	Ngerchaol	Ch5-1	H_polymorpha	60	Hungerfordia	polymorpha	NA
0.303746732	0.36127036	7.34093	134.45269	Koror	4	Ngerchaol	Ch6-1	H_polymorpha	35	Hungerfordia	polymorpha	NA
0.29171064	0.352816422	7.3432	134.43314	Koror	4	Ngerchaol	Ch6-2	H_polymorpha	35	Hungerfordia	polymorpha	NA
0.287855906	0.349284306	7.34112	134.42971	Koror	4	Ngerchaol	Ch8-1	H_polymorpha	60	Hungerfordia	polymorpha	NA
0.29589063	0.355834724	7.34278	134.43968	Koror	4	Ngerchaol	Ch8-2	H_polymorpha	140	Hungerfordia	polymorpha	NA
0.056621992	0.057585588	7.0919	134.2775	Southern	6	Carp	Cp1-1	H_polymorpha	9	Hungerfordia	polymorpha	NA
0.06257939	0.058669668	7.0899	134.2836	Southern	5	Carp	Cp6-1	H_polymorpha	6	Hungerfordia	polymorpha	NA
0.244528276	0.288152806	7.25541	134.44434	Ngeruktabel	6	Ngeruktabel	Gk1-1	H_polymorpha	4	Hungerfordia	polymorpha	NA
0.224427708	0.2766459	7.26534	134.41332	Ngeruktabel	10	Ngeruktabel	Gk2-2	H_polymorpha	3	Hungerfordia	polymorpha	NA
0.175580333	0.226946811	7.22786	134.38014	Ngeruktabel	6	Ngeruktabel	Gk3-1	H_polymorpha	2	Hungerfordia	polymorpha	NA
0.246015922	0.297428751	7.27874	134.43025	Ngeruktabel	7	Ngeruktabel	Gk4-4	H_polymorpha	1	Hungerfordia	polymorpha	NA
0.249371158	0.300188475	7.27943	134.43394	Ngeruktabel	7	Ngeruktabel	Gk4-5	H_polymorpha	5	Hungerfordia	polymorpha	NA
0.166144809	0.233362181	7.2548	134.34366	Ngeruktabel	6	Ngeruktabel	Gk5-1	H_polymorpha	8	Hungerfordia	polymorpha	NA
0.195848336	0.246928853	7.24179	134.39515	Ngeruktabel	6	Ngeruktabel	Gk5-2	H_polymorpha	1	Hungerfordia	polymorpha	NA
0.271293463	0.323092014	7.29813	134.44718	Ngeruktabel	4	Ngeruktabel	Gk5-4	H_polymorpha	1	Hungerfordia	polymorpha	NA
0.276582736	0.337881636	7.3316	134.4234	Ngeruktabel	6	Ngeruktabel	Gk5-5	H_polymorpha	2	Hungerfordia	polymorpha	NA
0.166382093	0.221465652	7.22917	134.3679	Ngeruktabel	5	Ngeruktabel	Gk7-3	H_polymorpha	3	Hungerfordia	polymorpha	NA
0.234980179	0.286258185	7.27042	134.42271	Ngeruktabel	6	Ngeruktabel	Gk8-4	H_polymorpha	15	Hungerfordia	polymorpha	NA
0.216249376	0.266074724	7.25318	134.41208	Ngeruktabel	5	Ngeruktabel	Gk8-5	H_polymorpha	15	Hungerfordia	polymorpha	NA
0.243617432	0.289149607	7.26026	134.44026	Ngeruktabel	5	Ngeruktabel	Gk8-7	H_polymorpha	2	Hungerfordia	polymorpha	NA
0.158028176	0.20116559	7.1983	134.37702	Southern	2	Ngermeaus	Ik8-1	H_polymorpha	58	Hungerfordia	polymorpha	NA
0.345545501	0.397289568	7.35159	134.49937	Koror	3	Sngall	Ko2-1	H_polymorpha	2	Hungerfordia	polymorpha	NA
0.334175473	0.380142948	7.32207	134.5078	Koror	10	Ngermeuangel	Ko2-2	H_polymorpha	16	Hungerfordia	polymorpha	NA
0.340600118	0.386489553	7.32607	134.51284	Koror	3	Ngermeuangel	Ko3-1	H_polymorpha	13	Hungerfordia	polymorpha	NA
0.346132191	0.397175334	7.34936	134.50199	Koror	5	Sngall	Ko5-1	H_polymorpha	7	Hungerfordia	polymorpha	NA
0.341328902	0.390312451	7.3382	134.50476	Koror	3	Ngermeuangel	Ko5-2	H_polymorpha	14	Hungerfordia	polymorpha	NA
0.326805117	0.372317462	7.31549	134.50341	Koror	4	Ngermeuangel	Ko5-5	H_polymorpha	13	Hungerfordia	polymorpha	NA
0.32565616	0.372909319	7.32103	134.49806	Koror	5	Ngermeuangel	Ko6-1	H_polymorpha	2	Hungerfordia	polymorpha	NA
0.3087207	0.364594984	7.33916	134.46123	Koror	4	Ngermalk	Nm4-1	H_polymorpha	19	Hungerfordia	polymorpha	NA
0.113954379	0.025819187	7.0156	134.24388	Southern	5	Peleliu	Pe1-1	H_polymorpha	1	Hungerfordia	polymorpha	NA
0.102832388	0.012066897	7.0277	134.2514	Southern	4	Peleliu	Pe2-2	H_polymorpha	6	Hungerfordia	polymorpha	NA
0.113785808	0.026832816	7.0156	134.2414	Southern	3	Peleliu	Pe2-3	H_polymorpha	2	Hungerfordia	polymorpha	NA
0.123678818	0.035305524	7.0058	134.2432	Southern	3	Peleliu	Pe2-5	H_polymorpha	5	Hungerfordia	polymorpha	NA
0.055068486	0.13881893	7.17826667	134.2599	Southern	9	Ngerukeuid	RJR9_19	H_polymorpha	34	Hungerfordia	polymorpha	NA
0.305531144	0.353063221	7.30829	134.48244	Koror	5	Ulebsechel	Ub6-1	H_polymorpha	1	Hungerfordia	polymorpha	NA
0.299160876	0.348512054	7.31006	134.4732	Koror	6	Ulebsechel	Ub7-1	H_polymorpha	1	Hungerfordia	polymorpha	NA
0.307605458	0.360492052	7.32811	134.46954	Koror	5	Ulebsechel	Ub7-3	H_polymorpha	1	Hungerfordia	polymorpha	NA
0.313002325	0.360438771	7.31306	134.48821	Koror	7	Ulebsechel	Ub7-4	H_polymorpha	1	Hungerfordia	polymorpha	NA
0.164539077	0.2442965	7.27866	134.30371	Southern	5	UlongEast	Uo8-4	H_polymorpha	13	Hungerfordia	polymorpha	NA
0.367074075	0.412714265	7.34274	134.53347	Airai	8	NgereamIsland	BA4-1	H_pteropurpuroides	131	Hungerfordia	pteropurpuroides	NA
0.369002625	0.415327068	7.34678	134.53293	Airai	4	Ngeream	BA4-2	H_pteropurpuroides	23	Hungerfordia	pteropurpuroides	NA
0.365266072	0.415555779	7.36006	134.51796	Airai	3	BA4-4	BA4-4	H_pteropurpuroides	38	Hungerfordia	pteropurpuroides	NA
0.368423644	0.410539676	7.32942	134.54417	Airai	10	NgereamIsland	BA5-2	H_pteropurpuroides	16	Hungerfordia	pteropurpuroides	NA
0.371125014	0.412888029	7.32969	134.54721	Airai	3	NgereamIsland	BA5-3	H_pteropurpuroides	1	Hungerfordia	pteropurpuroides	NA
0.367088648	0.415097017	7.35224	134.52646	Airai	7	Ngeream	BA6-3	H_pteropurpuroides	25	Hungerfordia	pteropurpuroides	NA
0.367194187	0.414013479	7.34755	134.53012	Airai	6	Ngeream	BA6-4	H_pteropurpuroides	46	Hungerfordia	pteropurpuroides	NA
0.369824516	0.420353783	7.36425	134.52042	Airai	3	BA7-3	BA7-3	H_pteropurpuroides	44	Hungerfordia	pteropurpuroides	NA
0.378612952	0.421936544	7.34085	134.54883	Airai	4	Chasechosou 	BA8-1	H_pteropurpuroides	70	Hungerfordia	pteropurpuroides	NA
0.36950922	0.412823965	7.33496	134.54182	Airai	6	NgereamIsland	BA8-3	H_pteropurpuroides	85	Hungerfordia	pteropurpuroides	NA
0.362732443	0.40605914	7.33065	134.53655	Airai	8	NgereamIsland	BA8-4	H_pteropurpuroides	31	Hungerfordia	pteropurpuroides	NA
0.364974395	0.409307626	7.33612	134.53555	Airai	6	NgereamIsland	BA8-5	H_pteropurpuroides	42	Hungerfordia	pteropurpuroides	NA
0.244528276	0.288152806	7.25541	134.44434	Ngeruktabel	6	Ngeruktabel	Gk1-1	H_robiginosa	33	Hungerfordia	robiginosa	NA
0.224427708	0.2766459	7.26534	134.41332	Ngeruktabel	10	Ngeruktabel	Gk2-2	H_robiginosa	26	Hungerfordia	robiginosa	NA
0.250412613	0.299307622	7.27458	134.43879	Ngeruktabel	7	Ngeruktabel	Gk7-6	H_robiginosa	11	Hungerfordia	robiginosa	NA
0.25060832	0.297158234	7.26788	134.44364	Ngeruktabel	6	Ngeruktabel	Gk7-7	H_robiginosa	3	Hungerfordia	robiginosa	NA
0.216249376	0.266074724	7.25318	134.41208	Ngeruktabel	5	Ngeruktabel	Gk8-5	H_robiginosa	51	Hungerfordia	robiginosa	NA
0.198759395	0.247714975	7.23871	134.40077	Ngeruktabel	4	Ngeruktabel	Gk8-6	H_robiginosa	4	Hungerfordia	robiginosa	NA
0.243617432	0.289149607	7.26026	134.44026	Ngeruktabel	5	Ngeruktabel	Gk8-7	H_robiginosa	6	Hungerfordia	robiginosa	NA
0.368038324	0.417749135	7.35971	134.52181	Airai	4	Ngeream	BA3-1	H_rudicostata	38	Hungerfordia	rudicostata	NA
0.367074075	0.412714265	7.34274	134.53347	Airai	8	NgereamIsland	BA4-1	H_rudicostata	21	Hungerfordia	rudicostata	NA
0.369002625	0.415327068	7.34678	134.53293	Airai	4	Ngeream	BA4-2	H_rudicostata	54	Hungerfordia	rudicostata	NA
0.365266072	0.415555779	7.36006	134.51796	Airai	3	BA4-4	BA4-4	H_rudicostata	27	Hungerfordia	rudicostata	NA
0.409708116	0.451873812	7.35571	134.5763	Airai	3	BA5-1	BA5-1	H_rudicostata	93	Hungerfordia	rudicostata	NA
0.368423644	0.410539676	7.32942	134.54417	Airai	10	NgereamIsland	BA5-2	H_rudicostata	21	Hungerfordia	rudicostata	NA
0.371125014	0.412888029	7.32969	134.54721	Airai	3	NgereamIsland	BA5-3	H_rudicostata	42	Hungerfordia	rudicostata	NA
0.396388765	0.438980705	7.34913	134.56468	Airai	5	Pkulaklim	BA5-4	H_rudicostata	6	Hungerfordia	rudicostata	NA
0.399905151	0.441935907	7.34893	134.56903	Airai	5	Pkulaklim	BA5-5	H_rudicostata	63	Hungerfordia	rudicostata	NA
0.418808104	0.459482709	7.35471	134.58781	Airai	5	BA6-1	BA6-1	H_rudicostata	89	Hungerfordia	rudicostata	NA
0.399138806	0.44046476	7.34539	134.57042	Airai	3	Pkulaklim	BA6-2	H_rudicostata	65	Hungerfordia	rudicostata	NA
0.367088648	0.415097017	7.35224	134.52646	Airai	7	Ngeream	BA6-3	H_rudicostata	2	Hungerfordia	rudicostata	NA
0.367194187	0.414013479	7.34755	134.53012	Airai	6	Ngeream	BA6-4	H_rudicostata	48	Hungerfordia	rudicostata	NA
0.42047718	0.46371359	7.36737	134.58142	Airai	4	BA7-1	BA7-1	H_rudicostata	16	Hungerfordia	rudicostata	NA
0.369824516	0.420353783	7.36425	134.52042	Airai	3	BA7-3	BA7-3	H_rudicostata	24	Hungerfordia	rudicostata	NA
0.378612952	0.421936544	7.34085	134.54883	Airai	4	Chasechosou 	BA8-1	H_rudicostata	38	Hungerfordia	rudicostata	NA
0.36950922	0.412823965	7.33496	134.54182	Airai	6	NgereamIsland	BA8-3	H_rudicostata	3	Hungerfordia	rudicostata	NA
0.362732443	0.40605914	7.33065	134.53655	Airai	8	NgereamIsland	BA8-4	H_rudicostata	25	Hungerfordia	rudicostata	NA
0.364974395	0.409307626	7.33612	134.53555	Airai	6	NgereamIsland	BA8-5	H_rudicostata	29	Hungerfordia	rudicostata	NA
0.425865254	0.468188277	7.36664	134.58843	Airai	3	BA8-7	BA8-7	H_rudicostata	67	Hungerfordia	rudicostata	NA
0.244528276	0.288152806	7.25541	134.44434	Ngeruktabel	6	Ngeruktabel	Gk1-1	H_spinoscapula	8	Hungerfordia	spinoscapula	NA
0.196682507	0.254825514	7.25942	134.3823	Ngeruktabel	9	Ongael	Gk1-2	H_spinoscapula	105	Hungerfordia	spinoscapula	NA
0.224427708	0.2766459	7.26534	134.41332	Ngeruktabel	10	Ngeruktabel	Gk2-2	H_spinoscapula	42	Hungerfordia	spinoscapula	NA
0.175580333	0.226946811	7.22786	134.38014	Ngeruktabel	6	Ngeruktabel	Gk3-1	H_spinoscapula	55	Hungerfordia	spinoscapula	NA
0.210727359	0.269975217	7.27319	134.38876	Ngeruktabel	7	Gk4-2	Gk4-2	H_spinoscapula	40	Hungerfordia	spinoscapula	NA
0.186721142	0.245533034	7.25318	134.37452	Ngeruktabel	7	Gk4-3	Gk4-3	H_spinoscapula	53	Hungerfordia	spinoscapula	NA
0.246015922	0.297428751	7.27874	134.43025	Ngeruktabel	7	Ngeruktabel	Gk4-4	H_spinoscapula	9	Hungerfordia	spinoscapula	NA
0.249371158	0.300188475	7.27943	134.43394	Ngeruktabel	7	Ngeruktabel	Gk4-5	H_spinoscapula	2	Hungerfordia	spinoscapula	NA
0.195170542	0.247799444	7.24502	134.39199	Ngeruktabel	6	Ngeruktabel	Gk4-6	H_spinoscapula	18	Hungerfordia	spinoscapula	NA
0.166144809	0.233362181	7.2548	134.34366	Ngeruktabel	6	Ngeruktabel	Gk5-1	H_spinoscapula	29	Hungerfordia	spinoscapula	NA
0.195848336	0.246928853	7.24179	134.39515	Ngeruktabel	6	Ngeruktabel	Gk5-2	H_spinoscapula	9	Hungerfordia	spinoscapula	NA
0.271293463	0.323092014	7.29813	134.44718	Ngeruktabel	4	Ngeruktabel	Gk5-4	H_spinoscapula	2	Hungerfordia	spinoscapula	NA
0.276582736	0.337881636	7.3316	134.4234	Ngeruktabel	6	Ngeruktabel	Gk5-5	H_spinoscapula	13	Hungerfordia	spinoscapula	NA
0.278534379	0.332769038	7.31106	134.44587	Ngeruktabel	8	Ngeruktabel	Gk6-2	H_spinoscapula	2	Hungerfordia	spinoscapula	NA
0.168122009	0.238772875	7.26373	134.33573	Ngeruktabel	4	Ngebedangel	Gk6-3	H_spinoscapula	17	Hungerfordia	spinoscapula	NA
0.254864248	0.299715867	7.26573	134.45011	Ngeruktabel	3	Ngeruktabel	Gk6-4	H_spinoscapula	3	Hungerfordia	spinoscapula	NA
0.238585206	0.293068379	7.28197	134.41816	Ngeruktabel	5	Ngermedai	Gk7-1	H_spinoscapula	13	Hungerfordia	spinoscapula	NA
0.231724405	0.285183061	7.27404	134.41578	Ngeruktabel	5	Ngeruktabel	Gk7-2	H_spinoscapula	5	Hungerfordia	spinoscapula	NA
0.166382093	0.221465652	7.22917	134.3679	Ngeruktabel	5	Ngeruktabel	Gk7-3	H_spinoscapula	6	Hungerfordia	spinoscapula	NA
0.24092746	0.297336303	7.28913	134.41509	Ngeruktabel	5	UetEraRebotel	Gk7-4	H_spinoscapula	6	Hungerfordia	spinoscapula	NA
0.271086505	0.323903271	7.30113	134.44449	Ngeruktabel	5	Ngeruktabel	Gk7-5	H_spinoscapula	2	Hungerfordia	spinoscapula	NA
0.250412613	0.299307622	7.27458	134.43879	Ngeruktabel	7	Ngeruktabel	Gk7-6	H_spinoscapula	13	Hungerfordia	spinoscapula	NA
0.25060832	0.297158234	7.26788	134.44364	Ngeruktabel	6	Ngeruktabel	Gk7-7	H_spinoscapula	2	Hungerfordia	spinoscapula	NA
0.278294834	0.331780392	7.30852	134.44772	Ngeruktabel	8	Ngeruktabel	Gk7-8	H_spinoscapula	5	Hungerfordia	spinoscapula	NA
0.242523246	0.300601239	7.29505	134.41185	Ngeruktabel	4	LukelaBeab	Gk8-2	H_spinoscapula	16	Hungerfordia	spinoscapula	NA
0.234980179	0.286258185	7.27042	134.42271	Ngeruktabel	6	Ngeruktabel	Gk8-4	H_spinoscapula	19	Hungerfordia	spinoscapula	NA
0.216249376	0.266074724	7.25318	134.41208	Ngeruktabel	5	Ngeruktabel	Gk8-5	H_spinoscapula	15	Hungerfordia	spinoscapula	NA
0.198759395	0.247714975	7.23871	134.40077	Ngeruktabel	4	Ngeruktabel	Gk8-6	H_spinoscapula	1	Hungerfordia	spinoscapula	NA
0.243617432	0.289149607	7.26026	134.44026	Ngeruktabel	5	Ngeruktabel	Gk8-7	H_spinoscapula	6	Hungerfordia	spinoscapula	NA
0.334175473	0.380142948	7.32207	134.5078	Koror	10	Ngermeuangel	Ko2-2	H_spinoscapula	1	Hungerfordia	spinoscapula	NA
0.055068486	0.13881893	7.17826667	134.2599	Southern	9	Ngerukeuid	RJR9_19	H_spinoscapula	5	Hungerfordia	spinoscapula	NA
0.305531144	0.353063221	7.30829	134.48244	Koror	5	Ulebsechel	Ub6-1	H_spinoscapula	11	Hungerfordia	spinoscapula	NA
0.299160876	0.348512054	7.31006	134.4732	Koror	6	Ulebsechel	Ub7-1	H_spinoscapula	6	Hungerfordia	spinoscapula	NA
0.30394636	0.353579063	7.31437	134.47593	Koror	5	Ulebsechel	Ub7-2	H_spinoscapula	15	Hungerfordia	spinoscapula	NA
0.313002325	0.360438771	7.31306	134.48821	Koror	7	Ulebsechel	Ub7-4	H_spinoscapula	15	Hungerfordia	spinoscapula	NA
0.307672548	0.35776498	7.31857	134.47739	Koror	6	Ulebsechel	Ub8-1	H_spinoscapula	7	Hungerfordia	spinoscapula	NA
0.157449253	0.239131067	7.27535	134.29347	Southern	4	Uo7-2	Uo7-2	H_spiroperculata	47	Hungerfordia	spiroperculata	NA
0.162553316	0.245448949	7.28243	134.28916	Southern	2	UlongWest	Uo8-3	H_spiroperculata	17	Hungerfordia	spiroperculata	NA
0.244528276	0.288152806	7.25541	134.44434	Ngeruktabel	6	Ngeruktabel	Gk1-1	H_subalata	57	Hungerfordia	subalata	NA
0.246015922	0.297428751	7.27874	134.43025	Ngeruktabel	7	Ngeruktabel	Gk4-4	H_subalata	39	Hungerfordia	subalata	NA
0.249371158	0.300188475	7.27943	134.43394	Ngeruktabel	7	Ngeruktabel	Gk4-5	H_subalata	8	Hungerfordia	subalata	NA
0.271293463	0.323092014	7.29813	134.44718	Ngeruktabel	4	Ngeruktabel	Gk5-4	H_subalata	17	Hungerfordia	subalata	NA
0.276582736	0.337881636	7.3316	134.4234	Ngeruktabel	6	Ngeruktabel	Gk5-5	H_subalata	5	Hungerfordia	subalata	NA
0.278534379	0.332769038	7.31106	134.44587	Ngeruktabel	8	Ngeruktabel	Gk6-2	H_subalata	38	Hungerfordia	subalata	NA
0.254864248	0.299715867	7.26573	134.45011	Ngeruktabel	3	Ngeruktabel	Gk6-4	H_subalata	27	Hungerfordia	subalata	NA
0.24092746	0.297336303	7.28913	134.41509	Ngeruktabel	5	UetEraRebotel	Gk7-4	H_subalata	4	Hungerfordia	subalata	NA
0.271086505	0.323903271	7.30113	134.44449	Ngeruktabel	5	Ngeruktabel	Gk7-5	H_subalata	38	Hungerfordia	subalata	NA
0.250412613	0.299307622	7.27458	134.43879	Ngeruktabel	7	Ngeruktabel	Gk7-6	H_subalata	31	Hungerfordia	subalata	NA
0.25060832	0.297158234	7.26788	134.44364	Ngeruktabel	6	Ngeruktabel	Gk7-7	H_subalata	4	Hungerfordia	subalata	NA
0.278294834	0.331780392	7.30852	134.44772	Ngeruktabel	8	Ngeruktabel	Gk7-8	H_subalata	15	Hungerfordia	subalata	NA
0.242523246	0.300601239	7.29505	134.41185	Ngeruktabel	4	LukelaBeab	Gk8-2	H_subalata	45	Hungerfordia	subalata	NA
0.234980179	0.286258185	7.27042	134.42271	Ngeruktabel	6	Ngeruktabel	Gk8-4	H_subalata	48	Hungerfordia	subalata	NA
0.243617432	0.289149607	7.26026	134.44026	Ngeruktabel	5	Ngeruktabel	Gk8-7	H_subalata	48	Hungerfordia	subalata	NA
0.244528276	0.288152806	7.25541	134.44434	Ngeruktabel	6	Ngeruktabel	Gk1-1	H_triplochilus	19	Hungerfordia	triplochilus	NA
0.196682507	0.254825514	7.25942	134.3823	Ngeruktabel	9	Ongael	Gk1-2	H_triplochilus	52	Hungerfordia	triplochilus	NA
0.224427708	0.2766459	7.26534	134.41332	Ngeruktabel	10	Ngeruktabel	Gk2-2	H_triplochilus	33	Hungerfordia	triplochilus	NA
0.210727359	0.269975217	7.27319	134.38876	Ngeruktabel	7	Gk4-2	Gk4-2	H_triplochilus	13	Hungerfordia	triplochilus	NA
0.186721142	0.245533034	7.25318	134.37452	Ngeruktabel	7	Gk4-3	Gk4-3	H_triplochilus	38	Hungerfordia	triplochilus	NA
0.249371158	0.300188475	7.27943	134.43394	Ngeruktabel	7	Ngeruktabel	Gk4-5	H_triplochilus	10	Hungerfordia	triplochilus	NA
0.195170542	0.247799444	7.24502	134.39199	Ngeruktabel	6	Ngeruktabel	Gk4-6	H_triplochilus	4	Hungerfordia	triplochilus	NA
0.195848336	0.246928853	7.24179	134.39515	Ngeruktabel	6	Ngeruktabel	Gk5-2	H_triplochilus	9	Hungerfordia	triplochilus	NA
0.278534379	0.332769038	7.31106	134.44587	Ngeruktabel	8	Ngeruktabel	Gk6-2	H_triplochilus	1	Hungerfordia	triplochilus	NA
0.254864248	0.299715867	7.26573	134.45011	Ngeruktabel	3	Ngeruktabel	Gk6-4	H_triplochilus	14	Hungerfordia	triplochilus	NA
0.231724405	0.285183061	7.27404	134.41578	Ngeruktabel	5	Ngeruktabel	Gk7-2	H_triplochilus	4	Hungerfordia	triplochilus	NA
0.166382093	0.221465652	7.22917	134.3679	Ngeruktabel	5	Ngeruktabel	Gk7-3	H_triplochilus	4	Hungerfordia	triplochilus	NA
0.24092746	0.297336303	7.28913	134.41509	Ngeruktabel	5	UetEraRebotel	Gk7-4	H_triplochilus	1	Hungerfordia	triplochilus	NA
0.271086505	0.323903271	7.30113	134.44449	Ngeruktabel	5	Ngeruktabel	Gk7-5	H_triplochilus	1	Hungerfordia	triplochilus	NA
0.250412613	0.299307622	7.27458	134.43879	Ngeruktabel	7	Ngeruktabel	Gk7-6	H_triplochilus	8	Hungerfordia	triplochilus	NA
0.25060832	0.297158234	7.26788	134.44364	Ngeruktabel	6	Ngeruktabel	Gk7-7	H_triplochilus	1	Hungerfordia	triplochilus	NA
0.278294834	0.331780392	7.30852	134.44772	Ngeruktabel	8	Ngeruktabel	Gk7-8	H_triplochilus	2	Hungerfordia	triplochilus	NA
0.243617432	0.289149607	7.26026	134.44026	Ngeruktabel	5	Ngeruktabel	Gk8-7	H_triplochilus	30	Hungerfordia	triplochilus	NA
0.05505784	0.138820855	7.17827	134.25987	Southern	5	Ngerukeuid	JCM3502	H_triplochilus	10	Hungerfordia	triplochilus	NA
0.060962966	0.137327132	7.17524	134.27486	Southern	4	Bkulomekerall	JCM3508	H_triplochilus	2	Hungerfordia	triplochilus	NA
0.334175473	0.380142948	7.32207	134.5078	Koror	10	Ngermeuangel	Ko2-2	H_triplochilus	16	Hungerfordia	triplochilus	NA
0.058179875	0.137175825	7.1758	134.269733	Southern	3	island16	RJR13_19	H_triplochilus	4	Hungerfordia	triplochilus	NA
0.0611993	0.137526225	7.17541667	134.275017	Southern	5	Bkulomekerall	RJR15_19	H_triplochilus	4	Hungerfordia	triplochilus	NA
0.055068486	0.13881893	7.17826667	134.2599	Southern	9	Ngerukeuid	RJR9_19	H_triplochilus	20	Hungerfordia	triplochilus	NA
0.299160876	0.348512054	7.31006	134.4732	Koror	6	Ulebsechel	Ub7-1	H_triplochilus	1	Hungerfordia	triplochilus	NA
0.409708116	0.451873812	7.35571	134.5763	Airai	3	BA5-1	BA5-1	H_unisulcata	1	Hungerfordia	unisulcata	NA
0.396388765	0.438980705	7.34913	134.56468	Airai	5	Pkulaklim	BA5-4	H_unisulcata	1	Hungerfordia	unisulcata	NA
0.399905151	0.441935907	7.34893	134.56903	Airai	5	Pkulaklim	BA5-5	H_unisulcata	11	Hungerfordia	unisulcata	NA
0.418808104	0.459482709	7.35471	134.58781	Airai	5	BA6-1	BA6-1	H_unisulcata	22	Hungerfordia	unisulcata	NA
0.399138806	0.44046476	7.34539	134.57042	Airai	3	Pkulaklim	BA6-2	H_unisulcata	4	Hungerfordia	unisulcata	NA
0.42047718	0.46371359	7.36737	134.58142	Airai	4	BA7-1	BA7-1	H_unisulcata	7	Hungerfordia	unisulcata	NA
0.378612952	0.421936544	7.34085	134.54883	Airai	4	Chasechosou 	BA8-1	H_unisulcata	12	Hungerfordia	unisulcata	NA
0.425865254	0.468188277	7.36664	134.58843	Airai	3	BA8-7	BA8-7	H_unisulcata	21	Hungerfordia	unisulcata	NA