H_rudicostata	H_pteropurpuroides	H_aspera	H_crassilabris_tridentata	H_unisulcata	H_lamellata	H_echinata_echinata	H_expansilabris	H_pelewensis	H_microbasodonta	H_polymorpha	H_ngereamensis	H_alata	H_aurea	H_basodonta	H_echinata_tubulispina	H_irregularis
38	0	6	0	0	0	0	0	0	0	0	10	0	0	0	91	0
21	131	21	15	0	35	0	0	33	2	2	0	0	0	0	0	0
54	23	0	37	0	0	0	0	0	0	0	27	0	0	0	0	0
27	38	3	0	0	0	0	0	0	0	0	0	0	0	0	0	0
93	0	0	0	1	0	44	0	0	0	0	0	0	0	0	0	0
21	16	4	7	0	24	0	0	7	2	0	0	18	5	23	0	0
42	1	0	17	0	0	0	0	0	0	0	0	0	0	0	0	0
6	0	0	0	1	0	9	1	0	0	2	0	0	0	0	0	0
63	0	0	0	11	0	93	65	0	0	2	0	0	0	0	0	0
89	0	0	0	22	0	85	13	0	0	1	0	0	0	0	0	0
65	0	0	0	4	0	0	21	0	0	0	0	0	0	0	0	0
2	25	20	2	0	14	0	0	5	5	0	0	0	0	0	0	0
48	46	5	8	0	14	0	0	2	0	0	0	0	0	0	0	0
16	0	0	0	7	0	123	0	0	0	0	0	0	0	0	0	16
24	44	3	0	0	0	0	0	0	0	0	0	0	0	0	0	0
38	70	2	0	12	0	0	0	0	0	0	0	0	0	0	0	0
3	85	6	23	0	3	0	6	0	0	0	0	0	0	0	0	0
25	31	3	10	0	6	0	3	1	7	0	0	0	0	0	0	0
29	42	0	28	0	1	0	0	11	5	0	0	0	0	0	0	0
67	0	0	0	21	0	60	0	0	0	0	0	0	0	0	0	0