H_inflatula	H_loxodonta	H_omphaloptyx	H_ringens_ringens	H_papilio_stenoptera	H_eurystoma	H_polymorpha	H_ringens_ventrinodus	H_chilorhytis	H_papilio_papilio	H_pyramis_pteroma	H_pyramis_pyramis	H_triplochilus	H_crenata	H_nodulosa	H_spiroperculata	H_elegantissima_anomphala	H_goniobasis_dmasechensis	H_goniobasis_goniobasis	H_brachyptera	H_elegantissima	H_goniobasis_exserta	H_spinoscapula
42	20	20	1	0	0	9	0	0	0	0	12	0	0	0	0	0	0	0	0	0	0	0
11	4	4	1	0	0	6	0	0	0	0	0	0	0	0	0	0	0	0	0	0	0	0
0	13	13	10	0	0	0	0	0	0	0	0	0	0	0	0	0	0	0	0	0	0	0
0	10	10	0	0	39	0	0	0	0	0	0	0	0	0	0	0	0	0	0	0	0	0
0	0	0	88	0	0	0	0	0	0	0	0	0	0	0	0	0	45	0	0	0	0	0
0	0	0	88	0	0	0	0	0	0	0	0	0	0	0	0	0	45	0	0	0	0	0
7	7	7	23	0	0	0	0	0	0	0	0	0	0	0	0	0	0	0	0	0	0	0
14	3	3	23	0	0	0	0	0	0	0	0	0	0	0	0	0	0	0	0	0	0	0
0	0	0	0	0	0	0	0	29	0	0	0	0	0	0	0	0	0	0	0	0	0	0
0	0	0	0	0	0	0	0	29	0	0	0	0	0	0	0	0	0	0	0	0	0	0
45	47	47	0	111	12	0	43	0	0	3	0	0	0	0	0	0	0	0	0	0	0	0
22	24	24	0	24	3	0	0	0	0	0	0	0	0	0	0	0	0	0	0	0	0	0
0	0	0	0	0	25	58	0	0	0	0	0	0	0	0	0	0	0	0	0	0	0	0
0	0	0	0	0	25	58	0	0	0	0	0	0	0	0	0	0	0	0	0	0	0	0
21	20	20	0	36	1	0	11	0	0	0	0	0	0	0	0	0	0	0	0	0	0	0
0	12	0	2	0	0	0	0	7	0	0	0	0	0	0	0	0	0	0	0	0	0	0
0	5	0	68	0	0	0	0	7	4	0	0	10	0	0	0	0	0	0	0	0	0	0
0	0	0	2	0	0	0	0	1	0	0	0	0	0	0	0	0	0	0	0	0	0	0
4	0	0	24	0	0	0	0	0	1	0	0	2	0	0	0	0	0	0	0	0	0	0
0	23	23	0	0	0	0	0	0	0	0	0	0	0	0	0	0	0	0	0	0	0	0
0	23	23	0	0	0	0	0	0	0	0	0	0	0	0	0	0	0	0	0	0	0	0
0	0	0	13	0	0	0	0	0	0	0	0	0	0	0	0	0	0	0	0	0	0	0
0	0	0	13	0	0	0	0	0	0	0	0	0	0	0	0	0	0	0	0	0	0	0
44	11	11	0	58	0	0	2	0	0	0	0	0	0	0	0	0	0	0	0	0	0	0
52	5	5	0	6	0	0	66	0	0	8	0	0	0	0	0	53	0	6	0	0	0	0
86	27	27	0	33	0	0	0	0	0	0	0	0	0	0	0	0	0	0	0	0	0	0
76	60	60	0	63	0	0	30	0	0	26	0	0	0	0	0	0	0	0	0	0	0	0
3	13	13	0	1	0	0	38	0	0	0	0	0	0	0	0	0	0	0	0	0	0	0
0	3	3	0	7	0	0	0	0	0	0	0	0	0	0	0	0	0	0	0	0	0	0
28	2	2	0	52	0	0	0	0	0	0	0	0	0	0	0	0	0	0	0	0	0	0
6	14	14	0	2	0	0	8	0	0	0	0	0	0	0	0	0	0	2	0	0	0	0
26	8	8	0	22	0	0	2	0	0	0	0	0	0	0	0	0	0	0	0	0	0	0
28	0	0	0	13	0	0	1	0	0	1	0	0	0	0	0	0	0	0	3	0	0	0
5	3	3	0	13	0	0	2	0	0	1	0	0	0	0	0	0	0	0	0	0	0	0
31	5	5	0	10	5	0	0	0	0	0	0	0	0	0	0	0	0	0	0	0	0	0
7	0	0	0	0	0	0	0	0	0	0	0	0	0	0	0	0	0	0	0	0	0	0
7	0	0	0	0	0	0	0	0	0	0	0	0	0	0	0	0	0	0	0	0	0	0
12	7	7	0	27	0	0	0	0	0	0	0	0	0	0	0	0	0	0	0	0	0	0
17	0	1	0	49	0	0	0	0	0	0	0	0	0	0	0	0	0	0	0	0	0	0
15	0	0	0	11	0	0	0	0	0	0	0	0	0	0	0	0	0	0	0	0	0	0
15	0	0	0	11	0	0	0	0	0	0	0	0	0	0	0	0	0	0	0	0	0	0
29	5	5	0	32	29	0	0	0	0	0	0	0	0	0	0	0	0	0	0	0	0	0
43	0	0	0	36	0	0	0	0	0	2	0	0	0	0	0	7	0	0	0	0	0	0
27	0	0	0	0	32	0	0	0	0	0	0	0	0	0	0	0	0	0	0	0	0	0
27	0	0	0	0	32	0	0	0	0	0	0	0	0	0	0	0	0	0	0	0	0	0
35	28	28	3	0	0	0	0	0	3	0	0	0	0	0	0	0	0	0	0	0	0	0
2	3	3	0	0	0	0	0	0	0	0	0	0	0	0	0	0	0	0	0	0	0	0
23	17	17	8	0	0	0	0	0	25	0	0	0	0	0	0	0	0	0	0	0	0	0
9	21	21	3	0	0	0	0	0	0	0	0	0	0	0	0	0	0	0	0	0	0	0
80	41	41	1	0	0	0	0	0	0	0	0	0	0	0	0	0	0	0	0	0	0	0
2	3	0	6	0	0	1	0	0	0	0	2	0	0	0	0	0	0	0	0	0	0	0
13	23	23	8	0	12	0	0	0	0	0	0	0	0	0	0	0	0	0	0	0	0	0
13	0	0	6	0	0	6	0	0	0	0	0	0	1	0	0	0	0	0	0	0	0	0
72	0	0	0	0	0	2	0	0	0	0	0	0	7	0	0	0	0	0	0	0	0	0
0	0	0	2	0	0	0	0	0	0	0	0	0	0	0	0	0	0	0	0	0	0	0
0	0	0	2	0	0	0	0	0	0	0	0	0	0	0	0	0	0	0	0	0	0	0
1	0	0	0	0	0	5	0	0	0	0	13	0	0	0	0	0	0	0	0	0	0	0
0	0	0	41	0	0	0	0	0	0	0	0	0	25	0	0	0	0	0	0	0	0	0
0	0	0	41	0	0	0	0	0	0	0	0	0	25	0	0	0	0	0	0	0	0	0
0	1	0	20	0	0	0	0	0	0	0	0	4	0	0	0	0	0	0	0	0	0	0
1	15	0	20	0	0	0	0	0	4	0	0	4	0	0	0	0	0	0	0	0	0	0
0	24	0	7	0	0	0	0	13	1	0	0	0	0	0	0	0	0	0	0	0	0	0
1	13	0	37	0	0	34	0	2	3	0	0	20	0	0	0	0	0	0	0	2	0	5
19	16	16	0	0	0	0	0	0	0	0	10	0	0	0	0	0	0	0	0	0	0	0
8	0	0	0	0	0	0	0	0	0	0	0	0	0	6	0	0	0	0	0	0	0	0
8	0	0	0	0	0	0	0	0	0	0	0	0	0	6	0	0	0	0	0	0	0	0
23	21	21	0	0	0	0	0	0	0	0	0	0	0	0	47	0	0	0	0	0	0	0
2	24	24	0	0	0	0	0	0	0	0	0	0	0	11	0	0	0	0	0	0	0	0
24	0	0	0	0	0	0	0	0	0	0	0	0	0	0	17	0	0	0	0	0	0	0
24	0	0	0	0	0	0	0	0	0	0	0	0	0	0	17	0	0	0	0	0	0	0
47	16	16	0	0	0	13	0	0	0	0	0	0	0	22	0	0	0	0	0	0	0	0
17	20	20	0	0	0	0	0	0	0	0	1	0	0	0	0	0	0	0	0	0	16	0